<?xml version="1.0" encoding="UTF-8" standalone="no"?>
<!-- Created with Inkscape (http://www.inkscape.org/) -->
<svg
   xmlns:dc="http://purl.org/dc/elements/1.1/"
   xmlns:cc="http://creativecommons.org/ns#"
   xmlns:rdf="http://www.w3.org/1999/02/22-rdf-syntax-ns#"
   xmlns:svg="http://www.w3.org/2000/svg"
   xmlns="http://www.w3.org/2000/svg"
   xmlns:xlink="http://www.w3.org/1999/xlink"
   xmlns:sodipodi="http://sodipodi.sourceforge.net/DTD/sodipodi-0.dtd"
   xmlns:inkscape="http://www.inkscape.org/namespaces/inkscape"
   width="128"
   height="128"
   id="svg2"
   sodipodi:version="0.32"
   inkscape:version="0.46"
   version="1.0"
   sodipodi:docname="galaxium-sphere-dark.svg"
   inkscape:output_extension="org.inkscape.output.svg.inkscape"
   inkscape:export-filename="/home/draek/Desktop/galaxium-22-dark.png"
   inkscape:export-xdpi="15.46875"
   inkscape:export-ydpi="15.46875">
  <defs
     id="defs4">
    <linearGradient
       inkscape:collect="always"
       id="linearGradient3890">
      <stop
         style="stop-color:#ffffff;stop-opacity:1;"
         offset="0"
         id="stop3892" />
      <stop
         style="stop-color:#ffffff;stop-opacity:0;"
         offset="1"
         id="stop3894" />
    </linearGradient>
    <linearGradient
       inkscape:collect="always"
       id="linearGradient3882">
      <stop
         style="stop-color:#ffffff;stop-opacity:1;"
         offset="0"
         id="stop3884" />
      <stop
         style="stop-color:#ffffff;stop-opacity:0;"
         offset="1"
         id="stop3886" />
    </linearGradient>
    <linearGradient
       id="linearGradient3860">
      <stop
         style="stop-color:#fcaf3e;stop-opacity:1;"
         offset="0"
         id="stop3862" />
      <stop
         style="stop-color:#ce5c00;stop-opacity:1;"
         offset="1"
         id="stop3864" />
    </linearGradient>
    <linearGradient
       id="linearGradient3852">
      <stop
         style="stop-color:#729fcf;stop-opacity:1;"
         offset="0"
         id="stop3854" />
      <stop
         style="stop-color:#204a87;stop-opacity:1;"
         offset="1"
         id="stop3856" />
    </linearGradient>
    <linearGradient
       id="linearGradient3844">
      <stop
         style="stop-color:#ad7fa8;stop-opacity:1;"
         offset="0"
         id="stop3846" />
      <stop
         style="stop-color:#5c3566;stop-opacity:1;"
         offset="1"
         id="stop3848" />
    </linearGradient>
    <linearGradient
       id="linearGradient3820">
      <stop
         id="stop3822"
         offset="0"
         style="stop-color:#ffffff;stop-opacity:1;" />
      <stop
         id="stop3824"
         offset="1"
         style="stop-color:#ffffff;stop-opacity:0.749" />
    </linearGradient>
    <linearGradient
       id="linearGradient3812">
      <stop
         style="stop-color:#ffffff;stop-opacity:1;"
         offset="0"
         id="stop3814" />
      <stop
         style="stop-color:#ffffff;stop-opacity:0;"
         offset="1"
         id="stop3816" />
    </linearGradient>
    <linearGradient
       id="linearGradient3289">
      <stop
         style="stop-color:#888a85;stop-opacity:1;"
         offset="0"
         id="stop3291" />
      <stop
         style="stop-color:#2e3436;stop-opacity:1;"
         offset="1"
         id="stop3293" />
    </linearGradient>
    <inkscape:perspective
       sodipodi:type="inkscape:persp3d"
       inkscape:vp_x="0 : 526.18109 : 1"
       inkscape:vp_y="0 : 1000 : 0"
       inkscape:vp_z="744.09448 : 526.18109 : 1"
       inkscape:persp3d-origin="372.04724 : 350.78739 : 1"
       id="perspective10" />
    <inkscape:perspective
       id="perspective2390"
       inkscape:persp3d-origin="372.04724 : 350.78739 : 1"
       inkscape:vp_z="744.09448 : 526.18109 : 1"
       inkscape:vp_y="0 : 1000 : 0"
       inkscape:vp_x="0 : 526.18109 : 1"
       sodipodi:type="inkscape:persp3d" />
    <radialGradient
       inkscape:collect="always"
       xlink:href="#linearGradient3289"
       id="radialGradient3297"
       cx="362.89709"
       cy="532.54828"
       fx="362.89709"
       fy="532.54828"
       r="107.01897"
       gradientTransform="matrix(0.9972942,-7.3513969e-2,9.8558247e-2,1.3370461,-53.963234,-159.84715)"
       gradientUnits="userSpaceOnUse" />
    <linearGradient
       inkscape:collect="always"
       xlink:href="#linearGradient3820"
       id="linearGradient3818"
       x1="451.51355"
       y1="628.63928"
       x2="263.77576"
       y2="430.39148"
       gradientUnits="userSpaceOnUse" />
    <linearGradient
       inkscape:collect="always"
       xlink:href="#linearGradient3844"
       id="linearGradient3850"
       x1="76.607124"
       y1="17.087339"
       x2="120.51624"
       y2="65.24749"
       gradientUnits="userSpaceOnUse" />
    <linearGradient
       inkscape:collect="always"
       xlink:href="#linearGradient3852"
       id="linearGradient3858"
       x1="54.575394"
       y1="111.89079"
       x2="8.1741924"
       y2="67.046021"
       gradientUnits="userSpaceOnUse" />
    <linearGradient
       inkscape:collect="always"
       xlink:href="#linearGradient3860"
       id="linearGradient3866"
       x1="19.714926"
       y1="41.762081"
       x2="16.346994"
       y2="69.157532"
       gradientUnits="userSpaceOnUse" />
    <linearGradient
       inkscape:collect="always"
       xlink:href="#linearGradient3860"
       id="linearGradient3874"
       x1="107.34633"
       y1="93.626801"
       x2="112.17697"
       y2="57.681183"
       gradientUnits="userSpaceOnUse" />
    <linearGradient
       inkscape:collect="always"
       xlink:href="#linearGradient3882"
       id="linearGradient3888"
       x1="106.7706"
       y1="106.92577"
       x2="8.3090611"
       y2="57.522266"
       gradientUnits="userSpaceOnUse" />
    <linearGradient
       inkscape:collect="always"
       xlink:href="#linearGradient3890"
       id="linearGradient3896"
       x1="23.941708"
       y1="20.292065"
       x2="120.02"
       y2="72.510857"
       gradientUnits="userSpaceOnUse" />
    <linearGradient
       inkscape:collect="always"
       xlink:href="#linearGradient3820"
       id="linearGradient3923"
       gradientUnits="userSpaceOnUse"
       x1="451.51355"
       y1="628.63928"
       x2="263.77576"
       y2="430.39148" />
    <radialGradient
       inkscape:collect="always"
       xlink:href="#linearGradient3289"
       id="radialGradient3925"
       gradientUnits="userSpaceOnUse"
       gradientTransform="matrix(0.9972942,-7.3513969e-2,9.8558247e-2,1.3370461,-53.963234,-159.84715)"
       cx="362.89709"
       cy="532.54828"
       fx="362.89709"
       fy="532.54828"
       r="107.01897" />
    <radialGradient
       gradientUnits="userSpaceOnUse"
       gradientTransform="matrix(3.390737,0,0,4.314717,-32.15161,-24.08889)"
       r="14.5625"
       fy="10.565164"
       fx="15.6875"
       cy="10.565164"
       cx="15.6875"
       id="radialGradient4516"
       xlink:href="#linearGradient4510"
       inkscape:collect="always" />
    <radialGradient
       gradientUnits="userSpaceOnUse"
       gradientTransform="matrix(1,0,0,0.28866,0,19.82861)"
       r="12.125"
       fy="27.875"
       fx="16"
       cy="27.875"
       cx="16"
       id="radialGradient4499"
       xlink:href="#linearGradient4493"
       inkscape:collect="always" />
    <linearGradient
       gradientUnits="userSpaceOnUse"
       y2="36.616074"
       x2="15.6875"
       y1="14.067684"
       x1="17.499428"
       id="linearGradient4471"
       xlink:href="#linearGradient4465"
       inkscape:collect="always" />
    <linearGradient
       gradientUnits="userSpaceOnUse"
       y2="41.063381"
       x2="17.905336"
       y1="12.237123"
       x1="16.573217"
       id="linearGradient4453"
       xlink:href="#linearGradient4447"
       inkscape:collect="always" />
    <linearGradient
       id="linearGradient4447">
      <stop
         id="stop4449"
         offset="0"
         style="stop-color:#c00;stop-opacity:1;" />
      <stop
         id="stop4451"
         offset="1"
         style="stop-color:#ad0000;stop-opacity:1;" />
    </linearGradient>
    <linearGradient
       id="linearGradient4465"
       inkscape:collect="always">
      <stop
         id="stop4467"
         offset="0"
         style="stop-color:white;stop-opacity:1;" />
      <stop
         id="stop4469"
         offset="1"
         style="stop-color:white;stop-opacity:0;" />
    </linearGradient>
    <linearGradient
       id="linearGradient4493"
       inkscape:collect="always">
      <stop
         id="stop4495"
         offset="0"
         style="stop-color:black;stop-opacity:1;" />
      <stop
         id="stop4497"
         offset="1"
         style="stop-color:black;stop-opacity:0;" />
    </linearGradient>
    <linearGradient
       id="linearGradient4510"
       inkscape:collect="always">
      <stop
         id="stop4512"
         offset="0"
         style="stop-color:white;stop-opacity:1;" />
      <stop
         id="stop4514"
         offset="1"
         style="stop-color:white;stop-opacity:0;" />
    </linearGradient>
    <inkscape:perspective
       id="perspective4783"
       inkscape:persp3d-origin="24 : 16 : 1"
       inkscape:vp_z="48 : 24 : 1"
       inkscape:vp_y="0 : 1000 : 0"
       inkscape:vp_x="0 : 24 : 1"
       sodipodi:type="inkscape:persp3d" />
    <radialGradient
       r="26.251011"
       fy="63.255669"
       fx="64.31163"
       cy="63.255669"
       cx="64.31163"
       gradientTransform="matrix(1.4211392,2.7894019e-7,-3.2107548e-7,1.6358093,-27.08413,-40.218564)"
       gradientUnits="userSpaceOnUse"
       id="radialGradient3239"
       xlink:href="#linearGradient4510"
       inkscape:collect="always" />
    <radialGradient
       gradientUnits="userSpaceOnUse"
       gradientTransform="matrix(1.4211392,2.7894019e-7,-3.2107548e-7,1.6358093,-27.08413,-40.218564)"
       r="26.251011"
       fy="63.255669"
       fx="64.31163"
       cy="63.255669"
       cx="64.31163"
       id="radialGradient3233"
       xlink:href="#linearGradient4510"
       inkscape:collect="always" />
    <linearGradient
       y2="41.780418"
       x2="43.48917"
       y1="100.16638"
       x1="70.436539"
       gradientUnits="userSpaceOnUse"
       id="linearGradient3227"
       xlink:href="#linearGradient4510"
       inkscape:collect="always" />
    <linearGradient
       gradientUnits="userSpaceOnUse"
       y2="41.780418"
       x2="43.48917"
       y1="100.16638"
       x1="70.436539"
       id="linearGradient3221"
       xlink:href="#linearGradient4510"
       inkscape:collect="always" />
    <inkscape:perspective
       sodipodi:type="inkscape:persp3d"
       inkscape:vp_x="0 : 24 : 1"
       inkscape:vp_y="0 : 1000 : 0"
       inkscape:vp_z="48 : 24 : 1"
       inkscape:persp3d-origin="24 : 16 : 1"
       id="perspective2612" />
    <linearGradient
       id="linearGradient2588">
      <stop
         style="stop-color:#c00;stop-opacity:1;"
         offset="0"
         id="stop2590" />
      <stop
         style="stop-color:#ad0000;stop-opacity:1;"
         offset="1"
         id="stop2592" />
    </linearGradient>
    <linearGradient
       inkscape:collect="always"
       xlink:href="#linearGradient4447"
       id="linearGradient2586"
       x1="16.573217"
       y1="12.237123"
       x2="17.905336"
       y2="41.063381"
       gradientUnits="userSpaceOnUse" />
    <linearGradient
       inkscape:collect="always"
       xlink:href="#linearGradient4465"
       id="linearGradient2584"
       x1="17.499428"
       y1="14.067684"
       x2="15.6875"
       y2="36.616074"
       gradientUnits="userSpaceOnUse" />
    <radialGradient
       inkscape:collect="always"
       xlink:href="#linearGradient4493"
       id="radialGradient2582"
       cx="16"
       cy="27.875"
       fx="16"
       fy="27.875"
       r="12.125"
       gradientTransform="matrix(1,0,0,0.28866,0,19.82861)"
       gradientUnits="userSpaceOnUse" />
    <radialGradient
       inkscape:collect="always"
       xlink:href="#linearGradient4510"
       id="radialGradient2580"
       cx="15.6875"
       cy="10.565164"
       fx="15.6875"
       fy="10.565164"
       r="14.5625"
       gradientTransform="matrix(3.390737,0,0,4.314717,-32.15161,-24.08889)"
       gradientUnits="userSpaceOnUse" />
    <radialGradient
       r="107.01897"
       fy="532.54828"
       fx="362.89709"
       cy="532.54828"
       cx="362.89709"
       gradientTransform="matrix(0.9972942,-7.3513969e-2,9.8558247e-2,1.3370461,-53.963234,-159.84715)"
       gradientUnits="userSpaceOnUse"
       id="radialGradient2578"
       xlink:href="#linearGradient3289"
       inkscape:collect="always" />
    <linearGradient
       y2="430.39148"
       x2="263.77576"
       y1="628.63928"
       x1="451.51355"
       gradientUnits="userSpaceOnUse"
       id="linearGradient2576"
       xlink:href="#linearGradient3820"
       inkscape:collect="always" />
    <linearGradient
       gradientUnits="userSpaceOnUse"
       y2="72.510857"
       x2="120.02"
       y1="20.292065"
       x1="23.941708"
       id="linearGradient2574"
       xlink:href="#linearGradient3890"
       inkscape:collect="always" />
    <linearGradient
       gradientUnits="userSpaceOnUse"
       y2="57.522266"
       x2="8.3090611"
       y1="106.92577"
       x1="106.7706"
       id="linearGradient2572"
       xlink:href="#linearGradient3882"
       inkscape:collect="always" />
    <linearGradient
       gradientUnits="userSpaceOnUse"
       y2="57.681183"
       x2="112.17697"
       y1="93.626801"
       x1="107.34633"
       id="linearGradient2570"
       xlink:href="#linearGradient3860"
       inkscape:collect="always" />
    <linearGradient
       gradientUnits="userSpaceOnUse"
       y2="69.157532"
       x2="16.346994"
       y1="41.762081"
       x1="19.714926"
       id="linearGradient2568"
       xlink:href="#linearGradient3860"
       inkscape:collect="always" />
    <linearGradient
       gradientUnits="userSpaceOnUse"
       y2="67.046021"
       x2="8.1741924"
       y1="111.89079"
       x1="54.575394"
       id="linearGradient2566"
       xlink:href="#linearGradient3852"
       inkscape:collect="always" />
    <linearGradient
       gradientUnits="userSpaceOnUse"
       y2="65.24749"
       x2="120.51624"
       y1="17.087339"
       x1="76.607124"
       id="linearGradient2564"
       xlink:href="#linearGradient3844"
       inkscape:collect="always" />
    <linearGradient
       gradientUnits="userSpaceOnUse"
       y2="430.39148"
       x2="263.77576"
       y1="628.63928"
       x1="451.51355"
       id="linearGradient2562"
       xlink:href="#linearGradient3820"
       inkscape:collect="always" />
    <radialGradient
       gradientUnits="userSpaceOnUse"
       gradientTransform="matrix(0.9972942,-7.3513969e-2,9.8558247e-2,1.3370461,-53.963234,-159.84715)"
       r="107.01897"
       fy="532.54828"
       fx="362.89709"
       cy="532.54828"
       cx="362.89709"
       id="radialGradient2560"
       xlink:href="#linearGradient3289"
       inkscape:collect="always" />
    <inkscape:perspective
       sodipodi:type="inkscape:persp3d"
       inkscape:vp_x="0 : 526.18109 : 1"
       inkscape:vp_y="0 : 1000 : 0"
       inkscape:vp_z="744.09448 : 526.18109 : 1"
       inkscape:persp3d-origin="372.04724 : 350.78739 : 1"
       id="perspective2558" />
    <inkscape:perspective
       id="perspective2556"
       inkscape:persp3d-origin="372.04724 : 350.78739 : 1"
       inkscape:vp_z="744.09448 : 526.18109 : 1"
       inkscape:vp_y="0 : 1000 : 0"
       inkscape:vp_x="0 : 526.18109 : 1"
       sodipodi:type="inkscape:persp3d" />
    <linearGradient
       id="linearGradient2550">
      <stop
         id="stop2552"
         offset="0"
         style="stop-color:#888a85;stop-opacity:1;" />
      <stop
         id="stop2554"
         offset="1"
         style="stop-color:#2e3436;stop-opacity:1;" />
    </linearGradient>
    <linearGradient
       id="linearGradient2544">
      <stop
         id="stop2546"
         offset="0"
         style="stop-color:#ffffff;stop-opacity:1;" />
      <stop
         id="stop2548"
         offset="1"
         style="stop-color:#ffffff;stop-opacity:0;" />
    </linearGradient>
    <linearGradient
       id="linearGradient2538">
      <stop
         style="stop-color:#ffffff;stop-opacity:1;"
         offset="0"
         id="stop2540" />
      <stop
         style="stop-color:#ffffff;stop-opacity:0.749"
         offset="1"
         id="stop2542" />
    </linearGradient>
    <linearGradient
       id="linearGradient2532">
      <stop
         id="stop2534"
         offset="0"
         style="stop-color:#ad7fa8;stop-opacity:1;" />
      <stop
         id="stop2536"
         offset="1"
         style="stop-color:#5c3566;stop-opacity:1;" />
    </linearGradient>
    <linearGradient
       id="linearGradient2526">
      <stop
         id="stop2528"
         offset="0"
         style="stop-color:#729fcf;stop-opacity:1;" />
      <stop
         id="stop2530"
         offset="1"
         style="stop-color:#204a87;stop-opacity:1;" />
    </linearGradient>
    <linearGradient
       id="linearGradient2520">
      <stop
         id="stop2522"
         offset="0"
         style="stop-color:#fcaf3e;stop-opacity:1;" />
      <stop
         id="stop2524"
         offset="1"
         style="stop-color:#ce5c00;stop-opacity:1;" />
    </linearGradient>
  </defs>
  <sodipodi:namedview
     id="base"
     pagecolor="#ffffff"
     bordercolor="#666666"
     borderopacity="1.0"
     gridtolerance="10000"
     guidetolerance="10"
     objecttolerance="10"
     inkscape:pageopacity="0.0"
     inkscape:pageshadow="2"
     inkscape:zoom="4.0934854"
     inkscape:cx="67.171631"
     inkscape:cy="64.693508"
     inkscape:document-units="px"
     inkscape:current-layer="layer1"
     showgrid="false"
     inkscape:window-width="1130"
     inkscape:window-height="810"
     inkscape:window-x="300"
     inkscape:window-y="27" />
  <metadata
     id="metadata7">
    <rdf:RDF>
      <cc:Work
         rdf:about="">
        <dc:format>image/svg+xml</dc:format>
        <dc:type
           rdf:resource="http://purl.org/dc/dcmitype/StillImage" />
      </cc:Work>
    </rdf:RDF>
  </metadata>
  <g
     inkscape:label="Layer 1"
     inkscape:groupmode="layer"
     id="layer1">
    <path
       style="fill:url(#linearGradient3866);fill-opacity:1;fill-rule:evenodd;stroke:#3465a4;stroke-width:2;stroke-linecap:butt;stroke-linejoin:miter;stroke-opacity:1;stroke-miterlimit:4;stroke-dasharray:none"
       d="M 67.622999,41.610512 C 67.622999,41.610512 32.352158,34.275645 15.44036,44.871927 C -0.73240474,55.00516 16.527482,75.097128 16.527482,75.097128 C 16.527482,75.097128 20.876046,59.004726 36.095986,53.569032 C 51.315922,48.133343 68.710136,40.523375 67.622999,41.610512 z"
       id="path3222"
       sodipodi:nodetypes="cscsc" />
    <g
       inkscape:label="Layer 1"
       id="g3459"
       transform="matrix(3.2142631,0,0,3.2142631,1552.4566,-23.680188)"
       style="opacity:0.75">
      <g
         id="g7435"
         transform="matrix(1.566667,0,0,1.566667,-8.925566,-23.94764)">
        <path
           transform="matrix(1.048831,0,0,1.266216,-306.5671,5.6173384)"
           d="M 28.125,27.875 A 12.125,3.5 0 1 1 3.875,27.875 A 12.125,3.5 0 1 1 28.125,27.875 z"
           sodipodi:ry="3.5"
           sodipodi:rx="12.125"
           sodipodi:cy="27.875"
           sodipodi:cx="16"
           id="path4491"
           style="opacity:1;fill:url(#radialGradient4499);fill-opacity:1;fill-rule:nonzero;stroke:none;stroke-width:1;stroke-linecap:butt;stroke-linejoin:miter;marker:none;marker-start:none;marker-mid:none;marker-end:none;stroke-miterlimit:4;stroke-dasharray:none;stroke-dashoffset:0;stroke-opacity:1;visibility:visible;display:inline;overflow:visible"
           sodipodi:type="arc" />
      </g>
    </g>
    <path
       style="fill:url(#linearGradient3874);fill-opacity:1;fill-rule:evenodd;stroke:#75507b;stroke-width:2;stroke-linecap:butt;stroke-linejoin:miter;stroke-opacity:1;stroke-miterlimit:4;stroke-dasharray:none"
       d="M 60.258156,86.334805 C 60.258156,86.334805 95.611197,93.799747 112.44079,83.07339 C 128.61356,72.765664 112.05164,53.022682 112.05164,53.022682 C 112.05164,53.022682 107.0051,68.940591 91.785169,74.376285 C 76.565233,79.811975 59.171019,87.421943 60.258156,86.334805 z"
       id="path3230"
       sodipodi:nodetypes="cscsc" />
    <path
       sodipodi:type="arc"
       style="fill:url(#radialGradient3925);fill-opacity:1;stroke:#2e3436;stroke-width:5.25626372999999969;stroke-miterlimit:4;stroke-dasharray:none;stroke-opacity:1"
       id="path3240"
       sodipodi:cx="384.28571"
       sodipodi:cy="558.07648"
       sodipodi:rx="104.28571"
       sodipodi:ry="100"
       d="M 488.57142,558.07648 A 104.28571,100 0 1 1 279.99999,558.07648 A 104.28571,100 0 1 1 488.57142,558.07648 z"
       transform="matrix(0.4326764,0,0,0.4326764,-102.27136,-177.46652)" />
    <path
       sodipodi:type="arc"
       style="opacity:0.71721311;fill:none;fill-opacity:1;stroke:url(#linearGradient3923);stroke-width:5.50186062;marker-start:none;stroke-miterlimit:4;stroke-dasharray:none;stroke-opacity:1"
       id="path3299"
       sodipodi:cx="384.28571"
       sodipodi:cy="558.07648"
       sodipodi:rx="104.28571"
       sodipodi:ry="100"
       d="M 488.57142,558.07648 A 104.28571,100 0 1 1 279.99999,558.07648 A 104.28571,100 0 1 1 488.57142,558.07648 z"
       transform="matrix(0.4133622,0,0,0.4133622,-94.849185,-166.68772)" />
    <path
       style="fill:url(#linearGradient3850);fill-opacity:1;fill-rule:evenodd;stroke:#75507b;stroke-width:2;stroke-linecap:butt;stroke-linejoin:miter;stroke-opacity:1;stroke-miterlimit:4;stroke-dasharray:none"
       d="M 116.78933,78.942266 C 116.78933,78.942266 142.88065,39.805288 98.307994,12.626832 C 53.735325,-14.551625 15.685489,24.585352 15.685489,24.585352 C 15.685489,24.585352 35.253977,13.713969 80.913785,31.108179 C 126.5736,48.502394 116.34621,79.895091 116.78933,78.942266 z"
       id="path3232"
       sodipodi:nodetypes="cscsc" />
    <path
       style="fill:url(#linearGradient3858);fill-opacity:1;fill-rule:evenodd;stroke:#3465a4;stroke-width:2;stroke-linecap:butt;stroke-linejoin:miter;stroke-opacity:1;stroke-miterlimit:4;stroke-dasharray:none"
       d="M 10.917326,49.003052 C 10.917326,49.003052 -14.9995,88.140029 29.573159,115.31849 C 74.14583,142.49694 112.19567,103.35996 112.19567,103.35996 C 112.19567,103.35996 92.627178,114.23135 46.96737,96.837138 C 1.3075463,79.442924 11.883923,47.526746 10.917326,49.003052 z"
       id="path3220"
       sodipodi:nodetypes="cscsc" />
    <path
       style="opacity:0.75000000000000000;fill:none;fill-opacity:1;fill-rule:evenodd;stroke:url(#linearGradient3896);stroke-width:2;stroke-linecap:round;stroke-linejoin:round;stroke-opacity:1;stroke-miterlimit:4;stroke-dasharray:none"
       d="M 118.77161,71.487439 C 118.77161,71.487439 133.49203,38.270036 101.28914,16.53006 C 59.30602,-11.81248 21.832396,21.031437 21.832396,21.031437 C 21.832396,21.031437 37.36133,12.60056 81.676373,29.503744 C 124.54911,45.856786 118.34131,72.409994 118.77161,71.487439 z"
       id="path3876"
       sodipodi:nodetypes="cscsc" />
    <path
       style="opacity:0.75000000000000000;fill:none;fill-opacity:1;fill-rule:evenodd;stroke:url(#linearGradient3888);stroke-width:2;stroke-linecap:round;stroke-linejoin:round;stroke-miterlimit:4;stroke-dasharray:none;stroke-opacity:1"
       d="M 8.8313799,56.075879 C 8.8313799,56.075879 -5.8890401,89.293284 26.313849,111.03326 C 68.296973,139.3758 105.7706,106.53188 105.7706,106.53188 C 105.7706,106.53188 90.241659,114.96276 45.92662,98.059576 C 3.0538799,81.706534 9.2616799,55.153329 8.8313799,56.075879 z"
       id="path3880"
       sodipodi:nodetypes="cscsc" />
    <g
       id="g2618"
       inkscape:label="Layer 1"
       transform="translate(-0.4985062,-3.0687035)">
      <g
         transform="translate(0.3454792,3.109312)"
         id="g3235">
        <path
           style="opacity:0.75;fill:#2e3436;fill-opacity:1;stroke:none;stroke-width:6;stroke-miterlimit:4;stroke-dasharray:none;stroke-opacity:0.53982299"
           d="M 32.732731,80.294018 L 47.032204,94.83729 L 64.346574,77.191678 L 81.108913,94.074798 L 94.507125,79.832352 L 77.603443,64.049838 L 95.581596,47.616491 L 81.282123,33.07322 L 63.343802,49.870356 L 44.675986,33.838888 L 32.773645,45.57823 L 50.938547,62.586417 L 32.732731,80.294018 z M 43.131578,80.40947 L 59.97601,64.002753 L 42.855682,47.607298 L 47.14668,43.750335 L 64.482636,59.642701 L 81.166042,42.994723 L 86.029581,47.290475 L 68.55642,64.537873 L 85.487986,79.883457 L 80.491617,84.386458 L 64.261611,68.046268 L 47.148284,84.494659 L 43.131578,80.40947 z"
           id="rect2446"
           sodipodi:nodetypes="cccccccccccccccccccccccccc" />
        <path
           style="fill:url(#radialGradient3239);fill-opacity:1;fill-rule:evenodd;stroke:none;stroke-width:1px;stroke-linecap:butt;stroke-linejoin:miter;stroke-opacity:0.53982299"
           d="M 46.004294,38.344015 L 64.275197,54.662745 L 80.739644,37.933455 L 90.562641,47.255675 L 73.323907,63.794164 L 90.131201,79.660431 L 81.415375,88.524394 L 64.462346,72.444161 L 47.467904,88.577886 L 38.133489,79.958214 C 38.133489,79.958214 55.860802,64.580528 55.860802,63.3894 C 55.860802,62.19827 38.060621,45.492148 38.060621,45.492148 L 46.004294,38.344015 z"
           id="path2443"
           sodipodi:nodetypes="ccccccccccscc" />
      </g>
    </g>
  </g>
</svg>
