<?xml version="1.0" encoding="UTF-8" standalone="no"?>
<!-- Created with Inkscape (http://www.inkscape.org/) -->
<svg
   xmlns:dc="http://purl.org/dc/elements/1.1/"
   xmlns:cc="http://creativecommons.org/ns#"
   xmlns:rdf="http://www.w3.org/1999/02/22-rdf-syntax-ns#"
   xmlns:svg="http://www.w3.org/2000/svg"
   xmlns="http://www.w3.org/2000/svg"
   xmlns:xlink="http://www.w3.org/1999/xlink"
   xmlns:sodipodi="http://sodipodi.sourceforge.net/DTD/sodipodi-0.dtd"
   xmlns:inkscape="http://www.inkscape.org/namespaces/inkscape"
   width="128"
   height="128"
   id="svg2"
   sodipodi:version="0.32"
   inkscape:version="0.46"
   version="1.0"
   sodipodi:docname="galaxium-sphere-sleep.svg"
   inkscape:output_extension="org.inkscape.output.svg.inkscape"
   inkscape:export-filename="/home/draek/Desktop/galaxium2.png"
   inkscape:export-xdpi="90"
   inkscape:export-ydpi="90">
  <defs
     id="defs4">
    <linearGradient
       inkscape:collect="always"
       id="linearGradient3890">
      <stop
         style="stop-color:#ffffff;stop-opacity:1;"
         offset="0"
         id="stop3892" />
      <stop
         style="stop-color:#ffffff;stop-opacity:0;"
         offset="1"
         id="stop3894" />
    </linearGradient>
    <linearGradient
       inkscape:collect="always"
       id="linearGradient3882">
      <stop
         style="stop-color:#ffffff;stop-opacity:1;"
         offset="0"
         id="stop3884" />
      <stop
         style="stop-color:#ffffff;stop-opacity:0;"
         offset="1"
         id="stop3886" />
    </linearGradient>
    <linearGradient
       id="linearGradient3860">
      <stop
         style="stop-color:#fcaf3e;stop-opacity:1;"
         offset="0"
         id="stop3862" />
      <stop
         style="stop-color:#ce5c00;stop-opacity:1;"
         offset="1"
         id="stop3864" />
    </linearGradient>
    <linearGradient
       id="linearGradient3852">
      <stop
         style="stop-color:#729fcf;stop-opacity:1;"
         offset="0"
         id="stop3854" />
      <stop
         style="stop-color:#204a87;stop-opacity:1;"
         offset="1"
         id="stop3856" />
    </linearGradient>
    <linearGradient
       id="linearGradient3844">
      <stop
         style="stop-color:#ad7fa8;stop-opacity:1;"
         offset="0"
         id="stop3846" />
      <stop
         style="stop-color:#5c3566;stop-opacity:1;"
         offset="1"
         id="stop3848" />
    </linearGradient>
    <linearGradient
       id="linearGradient3820">
      <stop
         id="stop3822"
         offset="0"
         style="stop-color:#ffffff;stop-opacity:1;" />
      <stop
         id="stop3824"
         offset="1"
         style="stop-color:#ffffff;stop-opacity:0.749" />
    </linearGradient>
    <linearGradient
       id="linearGradient3812">
      <stop
         style="stop-color:#ffffff;stop-opacity:1;"
         offset="0"
         id="stop3814" />
      <stop
         style="stop-color:#ffffff;stop-opacity:0;"
         offset="1"
         id="stop3816" />
    </linearGradient>
    <linearGradient
       id="linearGradient3289">
      <stop
         style="stop-color:#e9b96e;stop-opacity:1;"
         offset="0"
         id="stop3291" />
      <stop
         style="stop-color:#ce5c00;stop-opacity:1;"
         offset="1"
         id="stop3293" />
    </linearGradient>
    <inkscape:perspective
       sodipodi:type="inkscape:persp3d"
       inkscape:vp_x="0 : 526.18109 : 1"
       inkscape:vp_y="0 : 1000 : 0"
       inkscape:vp_z="744.09448 : 526.18109 : 1"
       inkscape:persp3d-origin="372.04724 : 350.78739 : 1"
       id="perspective10" />
    <inkscape:perspective
       id="perspective2390"
       inkscape:persp3d-origin="372.04724 : 350.78739 : 1"
       inkscape:vp_z="744.09448 : 526.18109 : 1"
       inkscape:vp_y="0 : 1000 : 0"
       inkscape:vp_x="0 : 526.18109 : 1"
       sodipodi:type="inkscape:persp3d" />
    <radialGradient
       inkscape:collect="always"
       xlink:href="#linearGradient3289"
       id="radialGradient3297"
       cx="362.89709"
       cy="532.54828"
       fx="362.89709"
       fy="532.54828"
       r="107.01897"
       gradientTransform="matrix(0.9972942,-7.3513969e-2,9.8558247e-2,1.3370461,-53.963234,-159.84715)"
       gradientUnits="userSpaceOnUse" />
    <linearGradient
       inkscape:collect="always"
       xlink:href="#linearGradient3820"
       id="linearGradient3818"
       x1="451.51355"
       y1="628.63928"
       x2="263.77576"
       y2="430.39148"
       gradientUnits="userSpaceOnUse" />
    <linearGradient
       inkscape:collect="always"
       xlink:href="#linearGradient3844"
       id="linearGradient3850"
       x1="76.607124"
       y1="17.087339"
       x2="120.51624"
       y2="65.24749"
       gradientUnits="userSpaceOnUse" />
    <linearGradient
       inkscape:collect="always"
       xlink:href="#linearGradient3852"
       id="linearGradient3858"
       x1="54.575394"
       y1="111.89079"
       x2="8.1741924"
       y2="67.046021"
       gradientUnits="userSpaceOnUse" />
    <linearGradient
       inkscape:collect="always"
       xlink:href="#linearGradient3860"
       id="linearGradient3866"
       x1="19.714926"
       y1="41.762081"
       x2="16.346994"
       y2="69.157532"
       gradientUnits="userSpaceOnUse" />
    <linearGradient
       inkscape:collect="always"
       xlink:href="#linearGradient3860"
       id="linearGradient3874"
       x1="107.34633"
       y1="93.626801"
       x2="112.17697"
       y2="57.681183"
       gradientUnits="userSpaceOnUse" />
    <linearGradient
       inkscape:collect="always"
       xlink:href="#linearGradient3882"
       id="linearGradient3888"
       x1="106.7706"
       y1="106.92577"
       x2="8.3090611"
       y2="57.522266"
       gradientUnits="userSpaceOnUse" />
    <linearGradient
       inkscape:collect="always"
       xlink:href="#linearGradient3890"
       id="linearGradient3896"
       x1="23.941708"
       y1="20.292065"
       x2="120.02"
       y2="72.510857"
       gradientUnits="userSpaceOnUse" />
    <radialGradient
       gradientUnits="userSpaceOnUse"
       gradientTransform="matrix(3.390737,0,0,4.314717,-32.15161,-24.08889)"
       r="14.5625"
       fy="10.565164"
       fx="15.6875"
       cy="10.565164"
       cx="15.6875"
       id="radialGradient4516"
       xlink:href="#linearGradient4510"
       inkscape:collect="always" />
    <radialGradient
       gradientUnits="userSpaceOnUse"
       gradientTransform="matrix(1,0,0,0.28866,0,19.82861)"
       r="12.125"
       fy="27.875"
       fx="16"
       cy="27.875"
       cx="16"
       id="radialGradient4499"
       xlink:href="#linearGradient4493"
       inkscape:collect="always" />
    <linearGradient
       gradientUnits="userSpaceOnUse"
       y2="36.616074"
       x2="15.6875"
       y1="14.067684"
       x1="17.499428"
       id="linearGradient4471"
       xlink:href="#linearGradient4465"
       inkscape:collect="always" />
    <linearGradient
       gradientUnits="userSpaceOnUse"
       y2="41.063381"
       x2="17.905336"
       y1="12.237123"
       x1="16.573217"
       id="linearGradient4453"
       xlink:href="#linearGradient4447"
       inkscape:collect="always" />
    <linearGradient
       id="linearGradient4447">
      <stop
         id="stop4449"
         offset="0"
         style="stop-color:#c00;stop-opacity:1;" />
      <stop
         id="stop4451"
         offset="1"
         style="stop-color:#ad0000;stop-opacity:1;" />
    </linearGradient>
    <linearGradient
       id="linearGradient4465"
       inkscape:collect="always">
      <stop
         id="stop4467"
         offset="0"
         style="stop-color:white;stop-opacity:1;" />
      <stop
         id="stop4469"
         offset="1"
         style="stop-color:white;stop-opacity:0;" />
    </linearGradient>
    <linearGradient
       id="linearGradient4493"
       inkscape:collect="always">
      <stop
         id="stop4495"
         offset="0"
         style="stop-color:black;stop-opacity:1;" />
      <stop
         id="stop4497"
         offset="1"
         style="stop-color:black;stop-opacity:0;" />
    </linearGradient>
    <linearGradient
       id="linearGradient4510"
       inkscape:collect="always">
      <stop
         id="stop4512"
         offset="0"
         style="stop-color:white;stop-opacity:1;" />
      <stop
         id="stop4514"
         offset="1"
         style="stop-color:white;stop-opacity:0;" />
    </linearGradient>
    <inkscape:perspective
       id="perspective4783"
       inkscape:persp3d-origin="24 : 16 : 1"
       inkscape:vp_z="48 : 24 : 1"
       inkscape:vp_y="0 : 1000 : 0"
       inkscape:vp_x="0 : 24 : 1"
       sodipodi:type="inkscape:persp3d" />
    <linearGradient
       id="linearGradient3712">
      <stop
         style="stop-color:white;stop-opacity:1;"
         offset="0"
         id="stop3714" />
      <stop
         style="stop-color:white;stop-opacity:0.50570345"
         offset="1"
         id="stop3716" />
    </linearGradient>
    <linearGradient
       id="linearGradient3734"
       inkscape:collect="always">
      <stop
         id="stop3736"
         offset="0"
         style="stop-color:black;stop-opacity:1;" />
      <stop
         id="stop3738"
         offset="1"
         style="stop-color:black;stop-opacity:0;" />
    </linearGradient>
    <linearGradient
       id="linearGradient3752">
      <stop
         style="stop-color:white;stop-opacity:1"
         offset="0"
         id="stop3754" />
      <stop
         id="stop3756"
         offset="0.80000001"
         style="stop-color:#fce94f;stop-opacity:1;" />
      <stop
         style="stop-color:#edd400;stop-opacity:1"
         offset="1"
         id="stop3758" />
    </linearGradient>
    <linearGradient
       id="linearGradient8431"
       inkscape:collect="always">
      <stop
         id="stop8433"
         offset="0"
         style="stop-color:#ffffff;stop-opacity:1;" />
      <stop
         id="stop8435"
         offset="1"
         style="stop-color:#ffffff;stop-opacity:0;" />
    </linearGradient>
    <inkscape:perspective
       id="perspective3534"
       inkscape:persp3d-origin="24 : 16 : 1"
       inkscape:vp_z="48 : 24 : 1"
       inkscape:vp_y="0 : 1000 : 0"
       inkscape:vp_x="0 : 24 : 1"
       sodipodi:type="inkscape:persp3d" />
    <linearGradient
       y2="5.7135463"
       x2="31.59153"
       y1="13.15625"
       x1="32.875"
       gradientUnits="userSpaceOnUse"
       id="linearGradient3399"
       xlink:href="#linearGradient2967"
       inkscape:collect="always" />
    <linearGradient
       y2="9.2939177"
       x2="46.404255"
       y1="1.9139081"
       x1="40.416721"
       gradientTransform="scale(1.032655,0.968377)"
       gradientUnits="userSpaceOnUse"
       id="linearGradient3397"
       xlink:href="#linearGradient2982"
       inkscape:collect="always" />
    <linearGradient
       y2="-1.7008253"
       x2="16"
       y1="4.5018396"
       x1="17.763865"
       gradientTransform="translate(12,15)"
       gradientUnits="userSpaceOnUse"
       id="linearGradient3394"
       xlink:href="#linearGradient2967"
       inkscape:collect="always" />
    <linearGradient
       id="linearGradient2982">
      <stop
         style="stop-color:#8db1d8;stop-opacity:1;"
         offset="0"
         id="stop2984" />
      <stop
         style="stop-color:#3465a4;stop-opacity:1;"
         offset="1"
         id="stop2986" />
    </linearGradient>
    <linearGradient
       inkscape:collect="always"
       id="linearGradient2967">
      <stop
         style="stop-color:#729fcf;stop-opacity:1;"
         offset="0"
         id="stop2969" />
      <stop
         style="stop-color:white;stop-opacity:1"
         offset="1"
         id="stop2971" />
    </linearGradient>
    <radialGradient
       r="11.89852"
       fy="66.5"
       fx="-79.065781"
       cy="66.5"
       cx="-79.065781"
       gradientTransform="matrix(1.172092,0,0,0.779118,114.2479,-215.3113)"
       gradientUnits="userSpaceOnUse"
       id="radialGradient2234"
       xlink:href="#linearGradient3704"
       inkscape:collect="always" />
    <radialGradient
       r="7.0416665"
       fy="50.736225"
       fx="-84.320526"
       cy="50.736225"
       cx="-84.320526"
       gradientTransform="matrix(0.86849,0,0,0.86849,-11.05505,6.701792)"
       gradientUnits="userSpaceOnUse"
       id="radialGradient2232"
       xlink:href="#linearGradient4487"
       inkscape:collect="always" />
    <radialGradient
       r="7.0416665"
       fy="50.736225"
       fx="-84.320526"
       cy="50.736225"
       cx="-84.320526"
       gradientTransform="matrix(0.86849,0,0,0.86849,-11.05505,6.701792)"
       gradientUnits="userSpaceOnUse"
       id="radialGradient2230"
       xlink:href="#linearGradient4487"
       inkscape:collect="always" />
    <radialGradient
       r="9.546875"
       fy="10.046875"
       fx="12.046875"
       cy="10.046875"
       cx="12.046875"
       gradientUnits="userSpaceOnUse"
       id="radialGradient7956"
       xlink:href="#linearGradient3734"
       inkscape:collect="always" />
    <linearGradient
       y2="-134.38734"
       x2="19.23638"
       y1="-140.43388"
       x1="18.825819"
       gradientUnits="userSpaceOnUse"
       id="linearGradient8741"
       xlink:href="#linearGradient8431"
       inkscape:collect="always" />
    <radialGradient
       r="10.108456"
       fy="3.2659137"
       fx="5.3851099"
       cy="3.2659137"
       cx="5.3851099"
       gradientTransform="matrix(1.242401,0,0,1.242401,-1.281477,-0.839422)"
       gradientUnits="userSpaceOnUse"
       id="radialGradient4414"
       xlink:href="#linearGradient3712"
       inkscape:collect="always" />
    <radialGradient
       r="10.049342"
       fy="7.8025141"
       fx="9.3747082"
       cy="7.8025141"
       cx="9.3747082"
       gradientTransform="matrix(1.200799,0,0,1.200799,-1.921023,-1.565398)"
       gradientUnits="userSpaceOnUse"
       id="radialGradient4412"
       xlink:href="#linearGradient3752"
       inkscape:collect="always" />
    <linearGradient
       id="linearGradient3704"
       inkscape:collect="always">
      <stop
         id="stop3706"
         offset="0"
         style="stop-color:white;stop-opacity:1;" />
      <stop
         id="stop3708"
         offset="1"
         style="stop-color:white;stop-opacity:0;" />
    </linearGradient>
    <linearGradient
       id="linearGradient3792">
      <stop
         style="stop-color:white;stop-opacity:1;"
         offset="0"
         id="stop3794" />
      <stop
         style="stop-color:white;stop-opacity:0.50570345"
         offset="1"
         id="stop3796" />
    </linearGradient>
    <linearGradient
       id="linearGradient3778">
      <stop
         style="stop-color:white;stop-opacity:1"
         offset="0"
         id="stop3780" />
      <stop
         id="stop3782"
         offset="0.80000001"
         style="stop-color:#fce94f;stop-opacity:1;" />
      <stop
         style="stop-color:#edd400;stop-opacity:1"
         offset="1"
         id="stop3784" />
    </linearGradient>
    <linearGradient
       id="linearGradient4487">
      <stop
         style="stop-color:#ffffff;stop-opacity:1;"
         offset="0"
         id="stop4489" />
      <stop
         id="stop4491"
         offset="0.58888888"
         style="stop-color:#ffffff;stop-opacity:1;" />
      <stop
         style="stop-color:#ffffff;stop-opacity:0;"
         offset="1"
         id="stop4493" />
    </linearGradient>
    <inkscape:perspective
       id="perspective3765"
       inkscape:persp3d-origin="24 : 16 : 1"
       inkscape:vp_z="48 : 24 : 1"
       inkscape:vp_y="0 : 1000 : 0"
       inkscape:vp_x="0 : 24 : 1"
       sodipodi:type="inkscape:persp3d" />
    <linearGradient
       inkscape:collect="always"
       xlink:href="#linearGradient2967"
       id="linearGradient3857"
       gradientUnits="userSpaceOnUse"
       gradientTransform="matrix(2.1562973,0,0,2.1562973,37.996351,43.256065)"
       x1="17.763865"
       y1="4.5018396"
       x2="16"
       y2="-1.7008253" />
  </defs>
  <sodipodi:namedview
     id="base"
     pagecolor="#ffffff"
     bordercolor="#666666"
     borderopacity="1.0"
     gridtolerance="10000"
     guidetolerance="10"
     objecttolerance="10"
     inkscape:pageopacity="0.0"
     inkscape:pageshadow="2"
     inkscape:zoom="2.8945313"
     inkscape:cx="69.088696"
     inkscape:cy="65.134164"
     inkscape:document-units="px"
     inkscape:current-layer="layer1"
     showgrid="false"
     inkscape:window-width="1130"
     inkscape:window-height="811"
     inkscape:window-x="340"
     inkscape:window-y="138" />
  <metadata
     id="metadata7">
    <rdf:RDF>
      <cc:Work
         rdf:about="">
        <dc:format>image/svg+xml</dc:format>
        <dc:type
           rdf:resource="http://purl.org/dc/dcmitype/StillImage" />
      </cc:Work>
    </rdf:RDF>
  </metadata>
  <g
     inkscape:label="Layer 1"
     inkscape:groupmode="layer"
     id="layer1"
     style="display:inline">
    <path
       style="fill:url(#linearGradient3866);fill-opacity:1;fill-rule:evenodd;stroke:#3465a4;stroke-width:2;stroke-linecap:butt;stroke-linejoin:miter;stroke-miterlimit:4;stroke-dasharray:none;stroke-opacity:1"
       d="M 67.622999,41.610512 C 67.622999,41.610512 32.352158,34.275645 15.44036,44.871927 C -0.73240474,55.00516 16.527482,75.097128 16.527482,75.097128 C 16.527482,75.097128 20.876046,59.004726 36.095986,53.569032 C 51.315922,48.133343 68.710136,40.523375 67.622999,41.610512 z"
       id="path3222"
       sodipodi:nodetypes="cscsc" />
    <g
       inkscape:label="Layer 1"
       id="g3459"
       transform="matrix(3.2142631,0,0,3.2142631,1552.4566,-23.680188)"
       style="opacity:0.75">
      <g
         id="g7435"
         transform="matrix(1.566667,0,0,1.566667,-8.925566,-23.94764)">
        <path
           transform="matrix(1.048831,0,0,1.266216,-306.5671,5.6173384)"
           d="M 28.125,27.875 A 12.125,3.5 0 1 1 3.875,27.875 A 12.125,3.5 0 1 1 28.125,27.875 z"
           sodipodi:ry="3.5"
           sodipodi:rx="12.125"
           sodipodi:cy="27.875"
           sodipodi:cx="16"
           id="path4491"
           style="opacity:1;fill:url(#radialGradient4499);fill-opacity:1;fill-rule:nonzero;stroke:none;stroke-width:1;stroke-linecap:butt;stroke-linejoin:miter;marker:none;marker-start:none;marker-mid:none;marker-end:none;stroke-miterlimit:4;stroke-dasharray:none;stroke-dashoffset:0;stroke-opacity:1;visibility:visible;display:inline;overflow:visible"
           sodipodi:type="arc" />
      </g>
    </g>
    <path
       style="fill:url(#linearGradient3874);fill-opacity:1;fill-rule:evenodd;stroke:#75507b;stroke-width:2;stroke-linecap:butt;stroke-linejoin:miter;stroke-miterlimit:4;stroke-dasharray:none;stroke-opacity:1"
       d="M 60.258156,86.334805 C 60.258156,86.334805 95.611197,93.799747 112.44079,83.07339 C 128.61356,72.765664 112.05164,53.022682 112.05164,53.022682 C 112.05164,53.022682 107.0051,68.940591 91.785169,74.376285 C 76.565233,79.811975 59.171019,87.421943 60.258156,86.334805 z"
       id="path3230"
       sodipodi:nodetypes="cscsc" />
    <g
       id="g3875">
      <g
         transform="matrix(2.1562973,0,0,2.1562973,-216.44673,-2.0261778)"
         id="g7909" />
      <path
         inkscape:export-ydpi="90"
         inkscape:export-xdpi="90"
         inkscape:export-filename="/home/lapo/Desktop/something-along-the-lines.png"
         transform="matrix(5.1948766,0,0,2.5974384,1.2898893,65.676619)"
         d="M 21.59375,10.046875 A 9.546875,9.546875 0 1 1 2.5,10.046875 A 9.546875,9.546875 0 1 1 21.59375,10.046875 z"
         sodipodi:ry="9.546875"
         sodipodi:rx="9.546875"
         sodipodi:cy="10.046875"
         sodipodi:cx="12.046875"
         id="path7954"
         style="opacity:0.4;fill:url(#radialGradient7956);fill-opacity:1;stroke:none;stroke-width:0.46570092;stroke-linecap:round;stroke-linejoin:miter;stroke-miterlimit:4;stroke-dasharray:none;stroke-dashoffset:0;stroke-opacity:1;display:inline"
         sodipodi:type="arc" />
      <path
         inkscape:export-ydpi="90"
         inkscape:export-xdpi="90"
         inkscape:export-filename="/home/lapo/Desktop/something-along-the-lines.png"
         transform="matrix(4.6302172,0,0,4.6302172,8.0913102,18.300806)"
         d="M 21.59375,10.046875 A 9.546875,9.546875 0 1 1 2.5,10.046875 A 9.546875,9.546875 0 1 1 21.59375,10.046875 z"
         sodipodi:ry="9.546875"
         sodipodi:rx="9.546875"
         sodipodi:cy="10.046875"
         sodipodi:cx="12.046875"
         id="path4380"
         style="fill:url(#radialGradient4412);fill-opacity:1;stroke:#c4a000;stroke-width:0.46570092;stroke-linecap:round;stroke-linejoin:miter;stroke-miterlimit:4;stroke-dasharray:none;stroke-dashoffset:0;stroke-opacity:1;display:inline"
         sodipodi:type="arc" />
      <path
         inkscape:transform-center-x="1.9734894"
         inkscape:transform-center-y="-7.3651901"
         transform="matrix(4.7607389,-1.2756362,0.9817725,3.6640252,99.974914,572.35458)"
         d="M 25.6875,-135.96875 A 6.125,5.96875 0 1 1 13.4375,-135.96875 A 6.125,5.96875 0 1 1 25.6875,-135.96875 z"
         sodipodi:ry="5.96875"
         sodipodi:rx="6.125"
         sodipodi:cy="-135.96875"
         sodipodi:cx="19.5625"
         id="path8739"
         style="fill:url(#linearGradient8741);fill-opacity:1;fill-rule:evenodd;stroke:none;stroke-width:1;stroke-linecap:round;stroke-linejoin:miter;stroke-miterlimit:4;stroke-dasharray:none;stroke-dashoffset:0.69999992;stroke-opacity:1;display:inline"
         sodipodi:type="arc" />
      <path
         inkscape:export-ydpi="90"
         inkscape:export-xdpi="90"
         inkscape:export-filename="/home/lapo/Desktop/something-along-the-lines.png"
         transform="matrix(4.4043515,0,0,4.4043515,10.813204,20.569015)"
         d="M 21.59375,10.046875 A 9.546875,9.546875 0 1 1 2.5,10.046875 A 9.546875,9.546875 0 1 1 21.59375,10.046875 z"
         sodipodi:ry="9.546875"
         sodipodi:rx="9.546875"
         sodipodi:cy="10.046875"
         sodipodi:cx="12.046875"
         id="path4382"
         style="fill:none;fill-opacity:1;stroke:url(#radialGradient4414);stroke-width:0.48958337;stroke-linecap:round;stroke-linejoin:miter;stroke-miterlimit:4;stroke-dasharray:none;stroke-dashoffset:0;stroke-opacity:1;display:inline"
         sodipodi:type="arc" />
      <g
         style="opacity:0.65"
         transform="matrix(2.1562973,0,0,2.1562973,12.120783,-36.526935)"
         id="g4499">
        <path
           sodipodi:type="arc"
           style="opacity:1;fill:url(#radialGradient2230);fill-opacity:1;stroke:none;stroke-width:1.08333337;stroke-linecap:round;stroke-linejoin:round;stroke-miterlimit:4;stroke-dasharray:none;stroke-dashoffset:0;stroke-opacity:1;display:inline"
           id="path4481"
           sodipodi:cx="-83"
           sodipodi:cy="53"
           sodipodi:rx="6.5"
           sodipodi:ry="6.5"
           d="M -76.5,53 A 6.5,6.5 0 1 1 -89.5,53 A 6.5,6.5 0 1 1 -76.5,53 z"
           transform="matrix(0.923077,0,0,0.923077,95.6154,0.57692)" />
        <path
           sodipodi:type="arc"
           style="opacity:1;fill:url(#radialGradient2232);fill-opacity:1;stroke:none;stroke-width:1.08333337;stroke-linecap:round;stroke-linejoin:round;stroke-miterlimit:4;stroke-dasharray:none;stroke-dashoffset:0;stroke-opacity:1;display:inline"
           id="path4495"
           sodipodi:cx="-83"
           sodipodi:cy="53"
           sodipodi:rx="6.5"
           sodipodi:ry="6.5"
           d="M -76.5,53 A 6.5,6.5 0 1 1 -89.5,53 A 6.5,6.5 0 1 1 -76.5,53 z"
           transform="matrix(0.923077,0,0,0.923077,105.6154,0.57692)" />
      </g>
      <g
         transform="matrix(2.1562973,0,0,2.1562973,12.120783,452.95255)"
         id="g7846">
        <path
           style="opacity:0.81226059;fill:none;fill-rule:evenodd;stroke:#ffffff;stroke-width:1px;stroke-linecap:round;stroke-linejoin:miter;stroke-opacity:1;display:inline"
           d="M 15.5,-176.5 C 17.462489,-175.20588 19.458976,-175.08467 21.5,-176.5"
           id="path4515"
           sodipodi:nodetypes="cc" />
        <path
           style="opacity:0.81226059;fill:none;fill-rule:evenodd;stroke:#ffffff;stroke-width:1px;stroke-linecap:round;stroke-linejoin:miter;stroke-opacity:1;display:inline"
           d="M 31.5,-176.5 C 29.537511,-175.20588 27.541024,-175.08467 25.5,-176.5"
           id="path4517"
           sodipodi:nodetypes="cc" />
        <path
           style="fill:none;fill-rule:evenodd;stroke:#888a85;stroke-width:1px;stroke-linecap:round;stroke-linejoin:miter;stroke-opacity:1"
           d="M 15.5,-175.5 C 17.462489,-174.20588 19.458976,-174.08467 21.5,-175.5"
           id="path4509"
           sodipodi:nodetypes="cc" />
        <path
           style="fill:none;fill-rule:evenodd;stroke:#888a85;stroke-width:1px;stroke-linecap:round;stroke-linejoin:miter;stroke-opacity:1;display:inline"
           d="M 31.5,-175.5 C 29.537511,-174.20588 27.541024,-174.08467 25.5,-175.5"
           id="path4513"
           sodipodi:nodetypes="cc" />
      </g>
      <g
         transform="matrix(0.6712448,0,0,2.1562973,49.900019,450.79626)"
         id="g4531">
        <path
           style="opacity:0.8;fill:none;fill-rule:evenodd;stroke:url(#radialGradient2234);stroke-width:1.79231215px;stroke-linecap:round;stroke-linejoin:miter;stroke-opacity:1;display:inline"
           d="M 15.557761,-163.5 L 32.435777,-163.5"
           id="path4527"
           inkscape:export-filename="/home/lapo/Desktop/something-along-the-lines.png"
           inkscape:export-xdpi="90"
           inkscape:export-ydpi="90" />
      </g>
      <path
         id="path5373"
         d="M 60.637472,96.085349 L 71.418959,96.085349"
         style="fill:none;fill-rule:evenodd;stroke:#c4a000;stroke-width:2.15629721px;stroke-linecap:round;stroke-linejoin:miter;stroke-opacity:1" />
    </g>
    <path
       style="fill:url(#linearGradient3850);fill-opacity:1;fill-rule:evenodd;stroke:#75507b;stroke-width:2;stroke-linecap:butt;stroke-linejoin:miter;stroke-miterlimit:4;stroke-dasharray:none;stroke-opacity:1"
       d="M 116.78933,78.942266 C 116.78933,78.942266 142.88065,39.805288 98.307994,12.626832 C 53.735325,-14.551625 15.685489,24.585352 15.685489,24.585352 C 15.685489,24.585352 35.253977,13.713969 80.913785,31.108179 C 126.5736,48.502394 116.34621,79.895091 116.78933,78.942266 z"
       id="path3232"
       sodipodi:nodetypes="cscsc" />
    <path
       style="fill:url(#linearGradient3858);fill-opacity:1;fill-rule:evenodd;stroke:#3465a4;stroke-width:2;stroke-linecap:butt;stroke-linejoin:miter;stroke-miterlimit:4;stroke-dasharray:none;stroke-opacity:1"
       d="M 10.917326,49.003052 C 10.917326,49.003052 -14.9995,88.140029 29.573159,115.31849 C 74.14583,142.49694 112.19567,103.35996 112.19567,103.35996 C 112.19567,103.35996 92.627178,114.23135 46.96737,96.837138 C 1.3075463,79.442924 11.883923,47.526746 10.917326,49.003052 z"
       id="path3220"
       sodipodi:nodetypes="cscsc" />
    <path
       style="opacity:0.75;fill:none;fill-opacity:1;fill-rule:evenodd;stroke:url(#linearGradient3896);stroke-width:2;stroke-linecap:round;stroke-linejoin:round;stroke-miterlimit:4;stroke-dasharray:none;stroke-opacity:1"
       d="M 118.77161,71.487439 C 118.77161,71.487439 133.49203,38.270036 101.28914,16.53006 C 59.30602,-11.81248 21.832396,21.031437 21.832396,21.031437 C 21.832396,21.031437 37.36133,12.60056 81.676373,29.503744 C 124.54911,45.856786 118.34131,72.409994 118.77161,71.487439 z"
       id="path3876"
       sodipodi:nodetypes="cscsc" />
    <path
       style="opacity:0.75;fill:none;fill-opacity:1;fill-rule:evenodd;stroke:url(#linearGradient3888);stroke-width:2;stroke-linecap:round;stroke-linejoin:round;stroke-miterlimit:4;stroke-dasharray:none;stroke-opacity:1"
       d="M 8.8313799,56.075879 C 8.8313799,56.075879 -5.8890401,89.293284 26.313849,111.03326 C 68.296973,139.3758 105.7706,106.53188 105.7706,106.53188 C 105.7706,106.53188 90.241659,114.96276 45.92662,98.059576 C 3.0538799,81.706534 9.2616799,55.153329 8.8313799,56.075879 z"
       id="path3880"
       sodipodi:nodetypes="cscsc" />
    <path
       sodipodi:nodetypes="ccccccccccc"
       id="path2898"
       d="M 73.575256,44.334214 L 73.575256,48.646809 L 77.887851,48.646809 L 73.575256,54.037552 L 73.575256,57.271998 L 84.356743,57.271998 L 84.356743,52.959403 L 80.044148,52.959403 L 84.356743,47.56866 L 84.356743,44.334214 L 73.575256,44.334214 z"
       style="fill:url(#linearGradient3857);fill-opacity:1;stroke:#3465a4;stroke-width:2.15629721;stroke-linecap:round;stroke-linejoin:miter;stroke-miterlimit:4;stroke-dasharray:none;stroke-dashoffset:0;stroke-opacity:1" />
    <g
       id="g1975"
       transform="matrix(2.1562973,0,0,2.1562973,18.589686,10.911606)">
      <path
         sodipodi:nodetypes="ccccccccccc"
         id="path2946"
         d="M 31,9 L 35.999995,9.000002 L 35.999995,10.053574 L 32.79543,14 L 36,14 L 35.999995,15.000004 L 30.999995,15.000004 L 31,13.946429 L 34.210006,10.000002 L 31,10 L 31,9 z"
         style="font-size:11.05665684px;font-style:normal;font-weight:bold;fill:#729fcf;fill-opacity:1;stroke:#3465a4;stroke-width:2;stroke-linecap:butt;stroke-linejoin:miter;stroke-miterlimit:4;stroke-dasharray:none;stroke-opacity:1;font-family:Bitstream Vera Sans Mono" />
      <path
         sodipodi:nodetypes="ccccccccccc"
         id="text2929"
         d="M 31,9 L 35.999995,9.000002 L 35.999995,10.053574 L 32.79543,14 L 36,14 L 35.999995,15.000004 L 30.999995,15.000004 L 31,13.946429 L 34.210006,10.000002 L 31,10 L 31,9"
         style="font-size:11.05665684px;font-style:normal;font-weight:bold;fill:url(#linearGradient3399);fill-opacity:1;stroke:none;stroke-width:1px;stroke-linecap:butt;stroke-linejoin:miter;stroke-opacity:1;font-family:Bitstream Vera Sans Mono" />
    </g>
    <g
       id="g1967"
       transform="matrix(2.1562973,0,0,2.1562973,12.107865,10.911607)">
      <path
         sodipodi:nodetypes="ccccccccccc"
         id="path2949"
         d="M 40,1 L 47.000003,0.99999935 L 47.005991,3.0714286 L 43,7 L 47,7 L 47.000003,9.0000161 L 39.999984,9.0000161 L 39.999982,6.9285713 L 44,3 L 40.005989,3.0000007 L 40,1 z"
         style="font-size:15.10630894px;font-style:normal;font-weight:bold;fill:#729fcf;fill-opacity:1;stroke:#3465a4;stroke-width:2;stroke-linecap:butt;stroke-linejoin:miter;stroke-miterlimit:4;stroke-dasharray:none;stroke-opacity:1;font-family:Bitstream Vera Sans Mono" />
      <path
         sodipodi:nodetypes="ccccccccccc"
         id="text2933"
         d="M 40,1 L 47.000003,0.99999935 L 47.005991,3.0714286 L 43,7 L 47,7 L 47.000003,9.0000161 L 39.999984,9.0000161 L 39.999982,6.9285713 L 44,3 L 40.005989,3.0000007 L 40,1"
         style="font-size:15.10630894px;font-style:normal;font-weight:bold;fill:url(#linearGradient3397);fill-opacity:1;stroke:none;stroke-width:1px;stroke-linecap:butt;stroke-linejoin:miter;stroke-opacity:1;font-family:Bitstream Vera Sans Mono" />
      <g
         style="opacity:0.5"
         id="g3008">
        <path
           style="opacity:1;fill:none;fill-rule:evenodd;stroke:#ffffff;stroke-width:1px;stroke-linecap:square;stroke-linejoin:miter;stroke-opacity:1"
           d="M 40.5,2.5 L 40.5,1.5 L 46.5,1.5"
           id="path2951" />
        <path
           style="opacity:1;fill:#ffffff;fill-opacity:1;fill-rule:evenodd;stroke:none;stroke-width:1px;stroke-linecap:round;stroke-linejoin:miter;stroke-opacity:1"
           d="M 43.0625,7 C 42.786358,7.0258883 42.583487,7.2707326 42.609375,7.546875 C 42.635263,7.8230174 42.880108,8.0258883 43.15625,8 L 47,8 L 47,7 L 43.15625,7 C 43.125069,6.9970641 43.093681,6.9970641 43.0625,7 z"
           id="path2953"
           sodipodi:nodetypes="csccccc" />
        <path
           style="opacity:1;fill:#ffffff;fill-opacity:1;fill-rule:evenodd;stroke:none;stroke-width:1px;stroke-linecap:round;stroke-linejoin:miter;stroke-opacity:1"
           d="M 44.09375,3 C 44.007938,3.0311398 43.932288,3.0851759 43.875,3.15625 L 40.15625,6.78125 L 40,6.9375 L 40,7.15625 L 40,9 L 41,9 L 41,7.34375 L 44.5625,3.84375 C 44.724254,3.6862744 44.760437,3.4399497 44.650803,3.2426093 C 44.54117,3.0452688 44.31291,2.9458567 44.09375,3 L 44.09375,3 z"
           id="path2955"
           sodipodi:nodetypes="cccccccccscc" />
      </g>
    </g>
  </g>
</svg>
