<?xml version="1.0" encoding="UTF-8" standalone="no"?>
<!-- Created with Inkscape (http://www.inkscape.org/) -->
<svg
   xmlns:dc="http://purl.org/dc/elements/1.1/"
   xmlns:cc="http://creativecommons.org/ns#"
   xmlns:rdf="http://www.w3.org/1999/02/22-rdf-syntax-ns#"
   xmlns:svg="http://www.w3.org/2000/svg"
   xmlns="http://www.w3.org/2000/svg"
   xmlns:xlink="http://www.w3.org/1999/xlink"
   xmlns:sodipodi="http://sodipodi.sourceforge.net/DTD/sodipodi-0.dtd"
   xmlns:inkscape="http://www.inkscape.org/namespaces/inkscape"
   width="128"
   height="128"
   id="svg2"
   sodipodi:version="0.32"
   inkscape:version="0.46"
   version="1.0"
   sodipodi:docname="galaxium-sphere-update.svg"
   inkscape:output_extension="org.inkscape.output.svg.inkscape"
   inkscape:export-filename="/home/draek/Desktop/galaxium-sphere-alert-22.png"
   inkscape:export-xdpi="15.46875"
   inkscape:export-ydpi="15.46875">
  <defs
     id="defs4">
    <linearGradient
       inkscape:collect="always"
       id="linearGradient3890">
      <stop
         style="stop-color:#ffffff;stop-opacity:1;"
         offset="0"
         id="stop3892" />
      <stop
         style="stop-color:#ffffff;stop-opacity:0;"
         offset="1"
         id="stop3894" />
    </linearGradient>
    <linearGradient
       inkscape:collect="always"
       id="linearGradient3882">
      <stop
         style="stop-color:#ffffff;stop-opacity:1;"
         offset="0"
         id="stop3884" />
      <stop
         style="stop-color:#ffffff;stop-opacity:0;"
         offset="1"
         id="stop3886" />
    </linearGradient>
    <linearGradient
       id="linearGradient3860">
      <stop
         style="stop-color:#fcaf3e;stop-opacity:1;"
         offset="0"
         id="stop3862" />
      <stop
         style="stop-color:#ce5c00;stop-opacity:1;"
         offset="1"
         id="stop3864" />
    </linearGradient>
    <linearGradient
       id="linearGradient3852">
      <stop
         style="stop-color:#729fcf;stop-opacity:1;"
         offset="0"
         id="stop3854" />
      <stop
         style="stop-color:#204a87;stop-opacity:1;"
         offset="1"
         id="stop3856" />
    </linearGradient>
    <linearGradient
       id="linearGradient3844">
      <stop
         style="stop-color:#ad7fa8;stop-opacity:1;"
         offset="0"
         id="stop3846" />
      <stop
         style="stop-color:#5c3566;stop-opacity:1;"
         offset="1"
         id="stop3848" />
    </linearGradient>
    <linearGradient
       id="linearGradient3820">
      <stop
         id="stop3822"
         offset="0"
         style="stop-color:#ffffff;stop-opacity:1;" />
      <stop
         id="stop3824"
         offset="1"
         style="stop-color:#ffffff;stop-opacity:0.749" />
    </linearGradient>
    <linearGradient
       id="linearGradient3812">
      <stop
         style="stop-color:#ffffff;stop-opacity:1;"
         offset="0"
         id="stop3814" />
      <stop
         style="stop-color:#ffffff;stop-opacity:0;"
         offset="1"
         id="stop3816" />
    </linearGradient>
    <linearGradient
       id="linearGradient3289">
      <stop
         style="stop-color:#e9b96e;stop-opacity:1;"
         offset="0"
         id="stop3291" />
      <stop
         style="stop-color:#ce5c00;stop-opacity:1;"
         offset="1"
         id="stop3293" />
    </linearGradient>
    <inkscape:perspective
       sodipodi:type="inkscape:persp3d"
       inkscape:vp_x="0 : 526.18109 : 1"
       inkscape:vp_y="0 : 1000 : 0"
       inkscape:vp_z="744.09448 : 526.18109 : 1"
       inkscape:persp3d-origin="372.04724 : 350.78739 : 1"
       id="perspective10" />
    <inkscape:perspective
       id="perspective2390"
       inkscape:persp3d-origin="372.04724 : 350.78739 : 1"
       inkscape:vp_z="744.09448 : 526.18109 : 1"
       inkscape:vp_y="0 : 1000 : 0"
       inkscape:vp_x="0 : 526.18109 : 1"
       sodipodi:type="inkscape:persp3d" />
    <radialGradient
       inkscape:collect="always"
       xlink:href="#linearGradient3289"
       id="radialGradient3297"
       cx="362.89709"
       cy="532.54828"
       fx="362.89709"
       fy="532.54828"
       r="107.01897"
       gradientTransform="matrix(0.9972942,-7.3513969e-2,9.8558247e-2,1.3370461,-53.963234,-159.84715)"
       gradientUnits="userSpaceOnUse" />
    <linearGradient
       inkscape:collect="always"
       xlink:href="#linearGradient3820"
       id="linearGradient3818"
       x1="451.51355"
       y1="628.63928"
       x2="263.77576"
       y2="430.39148"
       gradientUnits="userSpaceOnUse" />
    <linearGradient
       inkscape:collect="always"
       xlink:href="#linearGradient3844"
       id="linearGradient3850"
       x1="76.607124"
       y1="17.087339"
       x2="120.51624"
       y2="65.24749"
       gradientUnits="userSpaceOnUse" />
    <linearGradient
       inkscape:collect="always"
       xlink:href="#linearGradient3852"
       id="linearGradient3858"
       x1="54.575394"
       y1="111.89079"
       x2="8.1741924"
       y2="67.046021"
       gradientUnits="userSpaceOnUse" />
    <linearGradient
       inkscape:collect="always"
       xlink:href="#linearGradient3860"
       id="linearGradient3866"
       x1="19.714926"
       y1="41.762081"
       x2="16.346994"
       y2="69.157532"
       gradientUnits="userSpaceOnUse" />
    <linearGradient
       inkscape:collect="always"
       xlink:href="#linearGradient3860"
       id="linearGradient3874"
       x1="107.34633"
       y1="93.626801"
       x2="112.17697"
       y2="57.681183"
       gradientUnits="userSpaceOnUse" />
    <linearGradient
       inkscape:collect="always"
       xlink:href="#linearGradient3882"
       id="linearGradient3888"
       x1="106.7706"
       y1="106.92577"
       x2="8.3090611"
       y2="57.522266"
       gradientUnits="userSpaceOnUse" />
    <linearGradient
       inkscape:collect="always"
       xlink:href="#linearGradient3890"
       id="linearGradient3896"
       x1="23.941708"
       y1="20.292065"
       x2="120.02"
       y2="72.510857"
       gradientUnits="userSpaceOnUse" />
    <linearGradient
       inkscape:collect="always"
       xlink:href="#linearGradient3820"
       id="linearGradient3923"
       gradientUnits="userSpaceOnUse"
       x1="451.51355"
       y1="628.63928"
       x2="263.77576"
       y2="430.39148" />
    <radialGradient
       inkscape:collect="always"
       xlink:href="#linearGradient3289"
       id="radialGradient3925"
       gradientUnits="userSpaceOnUse"
       gradientTransform="matrix(0.9972942,-7.3513969e-2,9.8558247e-2,1.3370461,-53.963234,-159.84715)"
       cx="362.89709"
       cy="532.54828"
       fx="362.89709"
       fy="532.54828"
       r="107.01897" />
    <radialGradient
       gradientUnits="userSpaceOnUse"
       gradientTransform="matrix(3.390737,0,0,4.314717,-32.15161,-24.08889)"
       r="14.5625"
       fy="10.565164"
       fx="15.6875"
       cy="10.565164"
       cx="15.6875"
       id="radialGradient4516"
       xlink:href="#linearGradient4510"
       inkscape:collect="always" />
    <radialGradient
       gradientUnits="userSpaceOnUse"
       gradientTransform="matrix(1,0,0,0.28866,0,19.82861)"
       r="12.125"
       fy="27.875"
       fx="16"
       cy="27.875"
       cx="16"
       id="radialGradient4499"
       xlink:href="#linearGradient4493"
       inkscape:collect="always" />
    <linearGradient
       gradientUnits="userSpaceOnUse"
       y2="36.616074"
       x2="15.6875"
       y1="14.067684"
       x1="17.499428"
       id="linearGradient4471"
       xlink:href="#linearGradient4465"
       inkscape:collect="always" />
    <linearGradient
       gradientUnits="userSpaceOnUse"
       y2="41.063381"
       x2="17.905336"
       y1="12.237123"
       x1="16.573217"
       id="linearGradient4453"
       xlink:href="#linearGradient4447"
       inkscape:collect="always" />
    <linearGradient
       id="linearGradient4447">
      <stop
         id="stop4449"
         offset="0"
         style="stop-color:#c00;stop-opacity:1;" />
      <stop
         id="stop4451"
         offset="1"
         style="stop-color:#ad0000;stop-opacity:1;" />
    </linearGradient>
    <linearGradient
       id="linearGradient4465"
       inkscape:collect="always">
      <stop
         id="stop4467"
         offset="0"
         style="stop-color:white;stop-opacity:1;" />
      <stop
         id="stop4469"
         offset="1"
         style="stop-color:white;stop-opacity:0;" />
    </linearGradient>
    <linearGradient
       id="linearGradient4493"
       inkscape:collect="always">
      <stop
         id="stop4495"
         offset="0"
         style="stop-color:black;stop-opacity:1;" />
      <stop
         id="stop4497"
         offset="1"
         style="stop-color:black;stop-opacity:0;" />
    </linearGradient>
    <linearGradient
       id="linearGradient4510"
       inkscape:collect="always">
      <stop
         id="stop4512"
         offset="0"
         style="stop-color:white;stop-opacity:1;" />
      <stop
         id="stop4514"
         offset="1"
         style="stop-color:white;stop-opacity:0;" />
    </linearGradient>
    <inkscape:perspective
       id="perspective4783"
       inkscape:persp3d-origin="24 : 16 : 1"
       inkscape:vp_z="48 : 24 : 1"
       inkscape:vp_y="0 : 1000 : 0"
       inkscape:vp_x="0 : 24 : 1"
       sodipodi:type="inkscape:persp3d" />
    <radialGradient
       inkscape:collect="always"
       xlink:href="#linearGradient10691"
       id="radialGradient11382"
       gradientUnits="userSpaceOnUse"
       gradientTransform="scale(1.902215,0.525703)"
       cx="6.7027131"
       cy="73.615714"
       fx="6.7027131"
       fy="73.615714"
       r="7.2284161" />
    <linearGradient
       inkscape:collect="always"
       id="linearGradient10691">
      <stop
         style="stop-color:#000000;stop-opacity:1;"
         offset="0"
         id="stop10693" />
      <stop
         style="stop-color:#000000;stop-opacity:0;"
         offset="1"
         id="stop10695" />
    </linearGradient>
    <linearGradient
       id="linearGradient15107">
      <stop
         id="stop15109"
         offset="0.0000000"
         style="stop-color:#ffffff;stop-opacity:1.0000000;" />
      <stop
         id="stop15111"
         offset="1.0000000"
         style="stop-color:#e2e2e2;stop-opacity:1.0000000;" />
    </linearGradient>
    <linearGradient
       id="linearGradient2136">
      <stop
         id="stop2138"
         offset="0.0000000"
         style="stop-color:#989690;stop-opacity:1.0000000;" />
      <stop
         id="stop2140"
         offset="1.0000000"
         style="stop-color:#656460;stop-opacity:1.0000000;" />
    </linearGradient>
    <linearGradient
       id="linearGradient18913">
      <stop
         id="stop18915"
         offset="0.0000000"
         style="stop-color:#ededed;stop-opacity:1.0000000;" />
      <stop
         id="stop18917"
         offset="1.0000000"
         style="stop-color:#c8c8c8;stop-opacity:1.0000000;" />
    </linearGradient>
    <linearGradient
       id="linearGradient2166">
      <stop
         id="stop2168"
         offset="0"
         style="stop-color:#ffffff;stop-opacity:1;" />
      <stop
         id="stop2170"
         offset="1.0000000"
         style="stop-color:#dcdcdc;stop-opacity:1.0000000;" />
    </linearGradient>
    <linearGradient
       id="linearGradient2152">
      <stop
         id="stop2154"
         offset="0.0000000"
         style="stop-color:#9aa29a;stop-opacity:1.0000000;" />
      <stop
         id="stop2156"
         offset="1.0000000"
         style="stop-color:#b5beb5;stop-opacity:1.0000000;" />
    </linearGradient>
    <linearGradient
       id="linearGradient9749">
      <stop
         id="stop9751"
         offset="0"
         style="stop-color:#ffffff;stop-opacity:1;" />
      <stop
         id="stop9753"
         offset="1.0000000"
         style="stop-color:#ededed;stop-opacity:1.0000000;" />
    </linearGradient>
    <linearGradient
       id="linearGradient2274">
      <stop
         id="stop2276"
         offset="0.0000000"
         style="stop-color:#000000;stop-opacity:0.12871288;" />
      <stop
         id="stop2278"
         offset="1.0000000"
         style="stop-color:#000000;stop-opacity:0.0000000;" />
    </linearGradient>
    <linearGradient
       id="linearGradient28254">
      <stop
         style="stop-color:#9aa29a;stop-opacity:1.0000000;"
         offset="0.0000000"
         id="stop28256" />
      <stop
         style="stop-color:none"
         offset="1.0000000"
         id="stop28258" />
    </linearGradient>
    <linearGradient
       id="linearGradient28260">
      <stop
         id="stop28262"
         offset="0.0000000"
         style="stop-color:#9aa29a;stop-opacity:1.0000000;" />
      <stop
         id="stop28264"
         offset="1.0000000"
         style="stop-color:#ffffff;stop-opacity:1.0000000;" />
    </linearGradient>
    <linearGradient
       id="linearGradient5048">
      <stop
         id="stop5050"
         offset="0"
         style="stop-color:black;stop-opacity:0;" />
      <stop
         style="stop-color:black;stop-opacity:1;"
         offset="0.5"
         id="stop5056" />
      <stop
         id="stop5052"
         offset="1"
         style="stop-color:black;stop-opacity:0;" />
    </linearGradient>
    <inkscape:perspective
       id="perspective2511"
       inkscape:persp3d-origin="24 : 16 : 1"
       inkscape:vp_z="48 : 24 : 1"
       inkscape:vp_y="0 : 1000 : 0"
       inkscape:vp_x="0 : 24 : 1"
       sodipodi:type="inkscape:persp3d" />
    <linearGradient
       id="linearGradient2647">
      <stop
         id="stop2649"
         offset="0"
         style="stop-color:black;stop-opacity:0;" />
      <stop
         style="stop-color:black;stop-opacity:1;"
         offset="0.5"
         id="stop2651" />
      <stop
         id="stop2653"
         offset="1"
         style="stop-color:black;stop-opacity:0;" />
    </linearGradient>
    <inkscape:perspective
       id="perspective2633"
       inkscape:persp3d-origin="24 : 16 : 1"
       inkscape:vp_z="48 : 24 : 1"
       inkscape:vp_y="0 : 1000 : 0"
       inkscape:vp_x="0 : 24 : 1"
       sodipodi:type="inkscape:persp3d" />
    <linearGradient
       inkscape:collect="always"
       xlink:href="#linearGradient15107"
       id="linearGradient2757"
       gradientUnits="userSpaceOnUse"
       gradientTransform="matrix(2.9288198,0,0,3.0909685,143.16537,-27.895055)"
       x1="11.572842"
       y1="4.7461626"
       x2="18.475286"
       y2="26.022910" />
    <linearGradient
       inkscape:collect="always"
       xlink:href="#linearGradient2136"
       id="linearGradient2759"
       gradientUnits="userSpaceOnUse"
       gradientTransform="matrix(2.9288198,0,0,3.0909685,143.16537,-27.895055)"
       x1="2.0618774"
       y1="15.257116"
       x2="30.599684"
       y2="15.257116" />
    <linearGradient
       inkscape:collect="always"
       xlink:href="#linearGradient18913"
       id="linearGradient2761"
       gradientUnits="userSpaceOnUse"
       gradientTransform="matrix(3.4239751,0,0,2.596367,143.16537,-27.833129)"
       x1="5.8266134"
       y1="7.2310905"
       x2="13.467486"
       y2="17.876846" />
    <linearGradient
       inkscape:collect="always"
       xlink:href="#linearGradient2166"
       id="linearGradient2763"
       gradientUnits="userSpaceOnUse"
       gradientTransform="matrix(3.9660599,0,0,2.2414947,143.16537,-27.833129)"
       x1="10.184240"
       y1="15.148383"
       x2="15.310744"
       y2="29.568739" />
    <linearGradient
       inkscape:collect="always"
       xlink:href="#linearGradient2152"
       id="linearGradient2765"
       gradientUnits="userSpaceOnUse"
       gradientTransform="matrix(5.3515036,0,0,1.6611939,143.16537,-27.833129)"
       x1="8.9156475"
       y1="37.197018"
       x2="9.8855033"
       y2="52.090678" />
    <linearGradient
       inkscape:collect="always"
       xlink:href="#linearGradient2152"
       id="linearGradient2767"
       gradientUnits="userSpaceOnUse"
       gradientTransform="matrix(5.3515036,0,0,1.6611939,143.16537,-27.833129)"
       x1="8.9156475"
       y1="37.197018"
       x2="9.8855033"
       y2="52.090678" />
    <linearGradient
       inkscape:collect="always"
       xlink:href="#linearGradient9749"
       id="linearGradient2769"
       gradientUnits="userSpaceOnUse"
       gradientTransform="matrix(2.9886683,0,0,3.1474401,142.18789,-28.887809)"
       x1="11.233107"
       y1="13.686079"
       x2="21.111549"
       y2="24.132717" />
    <linearGradient
       inkscape:collect="always"
       xlink:href="#linearGradient2274"
       id="linearGradient2771"
       gradientUnits="userSpaceOnUse"
       gradientTransform="matrix(5.220961,0,0,1.7027322,143.16537,-27.833129)"
       x1="8.7803760"
       y1="37.784682"
       x2="9.7619219"
       y2="32.203162" />
    <radialGradient
       gradientUnits="userSpaceOnUse"
       gradientTransform="matrix(15.000008,0,0,19.224616,-385.00024,-346.98161)"
       r="0.50000006"
       fy="19.095654"
       fx="27.5"
       cy="19.095654"
       cx="27.5"
       id="radialGradient6410"
       xlink:href="#linearGradient6404"
       inkscape:collect="always" />
    <linearGradient
       gradientUnits="userSpaceOnUse"
       y2="26.4375"
       x2="28.4375"
       y1="21.75"
       x1="27.6875"
       id="linearGradient6400"
       xlink:href="#linearGradient6394"
       inkscape:collect="always" />
    <linearGradient
       y2="35.779209"
       x2="18.455231"
       y1="-9.0397129"
       x1="-10.618274"
       gradientUnits="userSpaceOnUse"
       id="linearGradient5385"
       xlink:href="#linearGradient3360"
       inkscape:collect="always" />
    <radialGradient
       r="29.191137"
       fy="-13.159472"
       fx="-9.6242685"
       cy="-13.159472"
       cx="-9.6242685"
       gradientTransform="matrix(1.1446622,-0.2591603,0.2642989,1.1833169,6.5723702,9.6762876)"
       gradientUnits="userSpaceOnUse"
       id="radialGradient5383"
       xlink:href="#linearGradient3444"
       inkscape:collect="always" />
    <radialGradient
       r="10.982252"
       fy="15.746525"
       fx="11.026446"
       cy="15.746525"
       cx="11.026446"
       gradientTransform="matrix(1,0,0,0.4889336,0,8.0475196)"
       gradientUnits="userSpaceOnUse"
       id="radialGradient5377"
       xlink:href="#linearGradient3383"
       inkscape:collect="always" />
    <linearGradient
       id="linearGradient3360"
       inkscape:collect="always">
      <stop
         id="stop3362"
         offset="0"
         style="stop-color:#ffffff;stop-opacity:1;" />
      <stop
         id="stop3364"
         offset="1"
         style="stop-color:#ffffff;stop-opacity:0;" />
    </linearGradient>
    <linearGradient
       id="linearGradient3383"
       inkscape:collect="always">
      <stop
         id="stop3385"
         offset="0"
         style="stop-color:#000000;stop-opacity:1;" />
      <stop
         id="stop3387"
         offset="1"
         style="stop-color:#000000;stop-opacity:0;" />
    </linearGradient>
    <linearGradient
       id="linearGradient3444">
      <stop
         style="stop-color:#fcaf3e;stop-opacity:1"
         offset="0"
         id="stop3446" />
      <stop
         style="stop-color:#f57900;stop-opacity:1"
         offset="1"
         id="stop3448" />
    </linearGradient>
    <linearGradient
       id="linearGradient6394">
      <stop
         id="stop6396"
         offset="0"
         style="stop-color:#f57900;stop-opacity:1;" />
      <stop
         id="stop6398"
         offset="1"
         style="stop-color:#fcaf3e;stop-opacity:1" />
    </linearGradient>
    <linearGradient
       id="linearGradient6404"
       inkscape:collect="always">
      <stop
         id="stop6406"
         offset="0"
         style="stop-color:#fcaf3e;stop-opacity:1;" />
      <stop
         id="stop6408"
         offset="1"
         style="stop-color:#fcaf3e;stop-opacity:0;" />
    </linearGradient>
    <inkscape:perspective
       id="perspective2824"
       inkscape:persp3d-origin="24 : 16 : 1"
       inkscape:vp_z="48 : 24 : 1"
       inkscape:vp_y="0 : 1000 : 0"
       inkscape:vp_x="0 : 24 : 1"
       sodipodi:type="inkscape:persp3d" />
    <radialGradient
       inkscape:collect="always"
       xlink:href="#linearGradient6404"
       id="radialGradient2856"
       gradientUnits="userSpaceOnUse"
       gradientTransform="matrix(15.000008,0,0,19.224616,-492.65797,-336.91807)"
       cx="27.5"
       cy="19.095654"
       fx="27.5"
       fy="19.095654"
       r="0.50000006" />
    <radialGradient
       inkscape:collect="always"
       xlink:href="#linearGradient3444"
       id="radialGradient2870"
       gradientUnits="userSpaceOnUse"
       gradientTransform="matrix(1.1446622,-0.2591603,0.2642989,1.1833169,6.5723702,9.6762876)"
       cx="-9.6242685"
       cy="-13.159472"
       fx="-9.6242685"
       fy="-13.159472"
       r="29.191137" />
    <linearGradient
       inkscape:collect="always"
       xlink:href="#linearGradient3360"
       id="linearGradient2872"
       gradientUnits="userSpaceOnUse"
       x1="-10.618274"
       y1="-9.0397129"
       x2="18.455231"
       y2="35.779209" />
    <linearGradient
       inkscape:collect="always"
       xlink:href="#linearGradient6394"
       id="linearGradient2874"
       gradientUnits="userSpaceOnUse"
       x1="27.6875"
       y1="21.75"
       x2="28.4375"
       y2="26.4375" />
    <radialGradient
       inkscape:collect="always"
       xlink:href="#linearGradient6404"
       id="radialGradient2876"
       gradientUnits="userSpaceOnUse"
       gradientTransform="matrix(15.000008,0,0,19.224616,-492.65797,-336.91807)"
       cx="27.5"
       cy="19.095654"
       fx="27.5"
       fy="19.095654"
       r="0.50000006" />
    <linearGradient
       inkscape:collect="always"
       id="linearGradient5420">
      <stop
         style="stop-color:#000000;stop-opacity:1;"
         offset="0"
         id="stop5422" />
      <stop
         style="stop-color:#000000;stop-opacity:0;"
         offset="1"
         id="stop5424" />
    </linearGradient>
    <radialGradient
       inkscape:collect="always"
       xlink:href="#linearGradient5420"
       id="radialGradient5426"
       cx="11"
       cy="18.125"
       fx="11"
       fy="18.125"
       r="5.25"
       gradientTransform="matrix(1,0,0,0.5,0,9.0625)"
       gradientUnits="userSpaceOnUse" />
    <inkscape:perspective
       sodipodi:type="inkscape:persp3d"
       inkscape:vp_x="0 : 8 : 1"
       inkscape:vp_y="0 : 1000 : 0"
       inkscape:vp_z="16 : 8 : 1"
       inkscape:persp3d-origin="8 : 5.3333333 : 1"
       id="perspective22" />
    <linearGradient
       inkscape:collect="always"
       id="linearGradient3162">
      <stop
         style="stop-color:#000000;stop-opacity:1;"
         offset="0"
         id="stop3164" />
      <stop
         style="stop-color:#000000;stop-opacity:0;"
         offset="1"
         id="stop3166" />
    </linearGradient>
    <linearGradient
       inkscape:collect="always"
       id="linearGradient3137">
      <stop
         style="stop-color:#fce94f;stop-opacity:1;"
         offset="0"
         id="stop3139" />
      <stop
         style="stop-color:#edd400;stop-opacity:1"
         offset="1"
         id="stop3141" />
    </linearGradient>
    <radialGradient
       inkscape:collect="always"
       xlink:href="#linearGradient3137"
       id="radialGradient3143"
       cx="5.0300417"
       cy="9.8295288"
       fx="5.0300417"
       fy="9.8295288"
       r="18.656607"
       gradientTransform="matrix(1.0473341,0,0,1.0947273,0.2066144,-0.2706484)"
       gradientUnits="userSpaceOnUse" />
    <radialGradient
       inkscape:collect="always"
       xlink:href="#linearGradient3162"
       id="radialGradient3168"
       cx="10.4375"
       cy="16.78125"
       fx="10.4375"
       fy="16.78125"
       r="10.375"
       gradientTransform="matrix(1,0,0,0.5090361,0,8.2389872)"
       gradientUnits="userSpaceOnUse" />
    <radialGradient
       inkscape:collect="always"
       xlink:href="#linearGradient3137"
       id="radialGradient3194"
       gradientUnits="userSpaceOnUse"
       gradientTransform="matrix(0.589326,0,0,0.5991918,8.2244474,8.7299055)"
       cx="5.0300417"
       cy="9.8295288"
       fx="5.0300417"
       fy="9.8295288"
       r="18.656607" />
    <radialGradient
       inkscape:collect="always"
       xlink:href="#linearGradient3137"
       id="radialGradient3198"
       gradientUnits="userSpaceOnUse"
       gradientTransform="matrix(0.589326,0,0,0.5991918,8.2244474,8.7299055)"
       cx="5.0300417"
       cy="9.8295288"
       fx="5.0300417"
       fy="9.8295288"
       r="18.656607" />
    <inkscape:perspective
       sodipodi:type="inkscape:persp3d"
       inkscape:vp_x="0 : 24 : 1"
       inkscape:vp_y="0 : 1000 : 0"
       inkscape:vp_z="48 : 24 : 1"
       inkscape:persp3d-origin="24 : 16 : 1"
       id="perspective2996" />
    <linearGradient
       inkscape:collect="always"
       id="linearGradient3859">
      <stop
         style="stop-color:#000000;stop-opacity:1;"
         offset="0"
         id="stop3861" />
      <stop
         style="stop-color:#000000;stop-opacity:0;"
         offset="1"
         id="stop3863" />
    </linearGradient>
    <linearGradient
       id="linearGradient2566"
       inkscape:collect="always">
      <stop
         id="stop2568"
         offset="0"
         style="stop-color:#ef2929;stop-opacity:1" />
      <stop
         id="stop2570"
         offset="1"
         style="stop-color:#ef2929;stop-opacity:0" />
    </linearGradient>
    <linearGradient
       id="linearGradient2560"
       inkscape:collect="always">
      <stop
         id="stop2562"
         offset="0"
         style="stop-color:#ef2929;stop-opacity:1" />
      <stop
         id="stop2564"
         offset="1"
         style="stop-color:#ef2929;stop-opacity:0" />
    </linearGradient>
    <linearGradient
       inkscape:collect="always"
       id="linearGradient4148">
      <stop
         style="stop-color:#000000;stop-opacity:1;"
         offset="0"
         id="stop4150" />
      <stop
         style="stop-color:#000000;stop-opacity:0;"
         offset="1"
         id="stop4152" />
    </linearGradient>
    <linearGradient
       inkscape:collect="always"
       id="linearGradient4140">
      <stop
         style="stop-color:#ffffff;stop-opacity:1;"
         offset="0"
         id="stop4142" />
      <stop
         style="stop-color:#ffffff;stop-opacity:0;"
         offset="1"
         id="stop4144" />
    </linearGradient>
    <linearGradient
       id="linearGradient3020">
      <stop
         id="stop3022"
         offset="0"
         style="stop-color:white;stop-opacity:1;" />
      <stop
         id="stop3024"
         offset="1"
         style="stop-color:white;stop-opacity:0.50570345" />
    </linearGradient>
    <linearGradient
       id="linearGradient3936">
      <stop
         id="stop3938"
         offset="0"
         style="stop-color:#fcaf3e;stop-opacity:1" />
      <stop
         style="stop-color:#ef2929;stop-opacity:1;"
         offset="0.64999998"
         id="stop3940" />
      <stop
         id="stop3942"
         offset="1"
         style="stop-color:#c00;stop-opacity:1" />
    </linearGradient>
    <linearGradient
       id="linearGradient3512">
      <stop
         style="stop-color:#a7aba2;stop-opacity:1;"
         offset="0"
         id="stop3514" />
      <stop
         id="stop3524"
         offset="0.1"
         style="stop-color:#e9ebe7;stop-opacity:1;" />
      <stop
         id="stop3520"
         offset="0.34999999"
         style="stop-color:white;stop-opacity:1;" />
      <stop
         style="stop-color:#e9ebe7;stop-opacity:1;"
         offset="0.89999998"
         id="stop3522" />
      <stop
         style="stop-color:#a7aba2;stop-opacity:1;"
         offset="1"
         id="stop3516" />
    </linearGradient>
    <linearGradient
       inkscape:collect="always"
       xlink:href="#linearGradient3512"
       id="linearGradient8452"
       gradientUnits="userSpaceOnUse"
       x1="4.5911422"
       y1="222.90671"
       x2="17.284155"
       y2="222.90671"
       gradientTransform="matrix(0.9393939,0,0,1,0.6667383,0)" />
    <linearGradient
       inkscape:collect="always"
       xlink:href="#linearGradient8431"
       id="linearGradient8456"
       gradientUnits="userSpaceOnUse"
       x1="18.825819"
       y1="-140.43388"
       x2="19.23638"
       y2="-134.38734" />
    <radialGradient
       inkscape:collect="always"
       xlink:href="#linearGradient3734"
       id="radialGradient8460"
       gradientUnits="userSpaceOnUse"
       cx="12.046875"
       cy="10.046875"
       fx="12.046875"
       fy="10.046875"
       r="9.546875" />
    <linearGradient
       id="linearGradient3696"
       inkscape:collect="always">
      <stop
         id="stop3698"
         offset="0"
         style="stop-color:white;stop-opacity:1;" />
      <stop
         id="stop3700"
         offset="1"
         style="stop-color:white;stop-opacity:0;" />
    </linearGradient>
    <radialGradient
       inkscape:collect="always"
       xlink:href="#linearGradient3936"
       id="radialGradient3725"
       gradientUnits="userSpaceOnUse"
       gradientTransform="matrix(2.5784757,0,0,2.5784757,-5.9937127,-0.9345791)"
       cx="9.3747082"
       cy="7.8025141"
       fx="9.3747082"
       fy="7.8025141"
       r="10.049342" />
    <radialGradient
       inkscape:collect="always"
       xlink:href="#linearGradient3712"
       id="radialGradient3737"
       gradientUnits="userSpaceOnUse"
       gradientTransform="matrix(2.5376699,0,0,2.5376699,-3.2238847,1.7641461)"
       cx="5.3851099"
       cy="3.2659137"
       fx="5.3851099"
       fy="3.2659137"
       r="10.108456" />
    <radialGradient
       inkscape:collect="always"
       xlink:href="#linearGradient4140"
       id="radialGradient3854"
       cx="24.53125"
       cy="28.408104"
       fx="24.53125"
       fy="28.408104"
       r="12.5"
       gradientTransform="matrix(1.9208389,0,0,0.36875,-22.58933,20.821387)"
       gradientUnits="userSpaceOnUse" />
    <radialGradient
       inkscape:collect="always"
       xlink:href="#linearGradient4148"
       id="radialGradient3856"
       cx="23.53125"
       cy="28.408075"
       fx="23.53125"
       fy="28.408075"
       r="12.5"
       gradientTransform="matrix(3.6188667,0,0,0.3690477,-61.625207,20.809221)"
       gradientUnits="userSpaceOnUse" />
    <radialGradient
       inkscape:collect="always"
       xlink:href="#linearGradient3859"
       id="radialGradient3867"
       cx="11"
       cy="214.82245"
       fx="11"
       fy="214.82245"
       r="6.875"
       gradientTransform="matrix(1.3034982,0,0,0.2828281,-3.3384807,160.50415)"
       gradientUnits="userSpaceOnUse" />
    <radialGradient
       inkscape:collect="always"
       xlink:href="#linearGradient7824"
       id="radialGradient3983"
       gradientUnits="userSpaceOnUse"
       gradientTransform="matrix(0.9320389,0,0,1.3203882,1.0339798,143.38105)"
       cx="29.46875"
       cy="-131.5"
       fx="29.46875"
       fy="-131.5"
       r="3.21875" />
    <radialGradient
       inkscape:collect="always"
       xlink:href="#linearGradient7824"
       id="radialGradient3985"
       gradientUnits="userSpaceOnUse"
       gradientTransform="matrix(0.9320389,0,0,1.3203882,-7.9660202,143.38105)"
       cx="29.46875"
       cy="-131.5"
       fx="29.46875"
       fy="-131.5"
       r="3.21875" />
    <radialGradient
       inkscape:collect="always"
       xlink:href="#linearGradient7802"
       id="radialGradient3987"
       gradientUnits="userSpaceOnUse"
       gradientTransform="matrix(1.2713953,0,0,1.5301983,-17.458259,170.87227)"
       cx="28.221428"
       cy="-133.18883"
       fx="28.221428"
       fy="-133.18883"
       r="3.21875" />
    <radialGradient
       inkscape:collect="always"
       xlink:href="#linearGradient7776"
       id="radialGradient3989"
       gradientUnits="userSpaceOnUse"
       gradientTransform="matrix(1.2713953,0,0,1.5301983,-8.4582587,170.87227)"
       cx="28.221428"
       cy="-133.18883"
       fx="28.221428"
       fy="-133.18883"
       r="3.21875" />
    <linearGradient
       inkscape:collect="always"
       xlink:href="#linearGradient7810"
       id="linearGradient3991"
       gradientUnits="userSpaceOnUse"
       x1="28.621698"
       y1="-135.65616"
       x2="30.315804"
       y2="-127.34384" />
    <linearGradient
       inkscape:collect="always"
       xlink:href="#linearGradient7810"
       id="linearGradient3993"
       gradientUnits="userSpaceOnUse"
       gradientTransform="matrix(0.2408327,6.0944233e-2,-4.9083318e-2,0.4390867,14.270157,23.77051)"
       x1="28.621698"
       y1="-135.65616"
       x2="30.315804"
       y2="-127.34384" />
    <linearGradient
       inkscape:collect="always"
       xlink:href="#linearGradient3696"
       id="linearGradient3995"
       gradientUnits="userSpaceOnUse"
       gradientTransform="matrix(-1,0,0,1,-54.020832,-37.989582)"
       x1="-76.3125"
       y1="49.062111"
       x2="-74.847809"
       y2="52.578125" />
    <linearGradient
       inkscape:collect="always"
       xlink:href="#linearGradient2560"
       id="linearGradient3997"
       gradientUnits="userSpaceOnUse"
       x1="-80.725792"
       y1="46.970554"
       x2="-81.683334"
       y2="49.016621" />
    <linearGradient
       inkscape:collect="always"
       xlink:href="#linearGradient2566"
       id="linearGradient3999"
       gradientUnits="userSpaceOnUse"
       x1="-80.725792"
       y1="46.970554"
       x2="-81.683334"
       y2="49.016621" />
    <linearGradient
       inkscape:collect="always"
       xlink:href="#linearGradient3696"
       id="linearGradient4001"
       gradientUnits="userSpaceOnUse"
       gradientTransform="translate(102.01042,-37.989582)"
       x1="-76.3125"
       y1="49.062111"
       x2="-74.847809"
       y2="52.578125" />
    <inkscape:perspective
       sodipodi:type="inkscape:persp3d"
       inkscape:vp_x="0 : 24 : 1"
       inkscape:vp_y="0 : 1000 : 0"
       inkscape:vp_z="48 : 24 : 1"
       inkscape:persp3d-origin="24 : 16 : 1"
       id="perspective2589" />
    <linearGradient
       id="linearGradient6107">
      <stop
         style="stop-color:#e9b96e;stop-opacity:1;"
         offset="0"
         id="stop6109" />
      <stop
         id="stop6115"
         offset="0.78742659"
         style="stop-color:#e9b96e;stop-opacity:1;" />
      <stop
         style="stop-color:#8f5902;stop-opacity:1"
         offset="1"
         id="stop6111" />
    </linearGradient>
    <linearGradient
       y2="-127.34384"
       x2="30.315804"
       y1="-135.65616"
       x1="28.621698"
       gradientUnits="userSpaceOnUse"
       id="linearGradient3612"
       xlink:href="#linearGradient7810"
       inkscape:collect="always" />
    <linearGradient
       y2="-127.34384"
       x2="30.315804"
       y1="-135.65616"
       x1="28.621698"
       gradientUnits="userSpaceOnUse"
       id="linearGradient3610"
       xlink:href="#linearGradient7810"
       inkscape:collect="always" />
    <radialGradient
       r="3.21875"
       fy="-133.18883"
       fx="28.221428"
       cy="-133.18883"
       cx="28.221428"
       gradientTransform="matrix(1.6369211,0,0,1.625836,-18.114998,82.98933)"
       gradientUnits="userSpaceOnUse"
       id="radialGradient3608"
       xlink:href="#linearGradient7776"
       inkscape:collect="always" />
    <radialGradient
       r="3.21875"
       fy="-133.18883"
       fx="28.221428"
       cy="-133.18883"
       cx="28.221428"
       gradientTransform="matrix(1.6369211,0,0,1.625836,-18.114998,82.98933)"
       gradientUnits="userSpaceOnUse"
       id="radialGradient3606"
       xlink:href="#linearGradient7802"
       inkscape:collect="always" />
    <radialGradient
       r="3.21875"
       fy="-131.5"
       fx="29.46875"
       cy="-131.5"
       cx="29.46875"
       gradientTransform="matrix(1,0,0,1.3203883,0,42.131068)"
       gradientUnits="userSpaceOnUse"
       id="radialGradient3604"
       xlink:href="#linearGradient7824"
       inkscape:collect="always" />
    <radialGradient
       r="3.21875"
       fy="-131.5"
       fx="29.46875"
       cy="-131.5"
       cx="29.46875"
       gradientTransform="matrix(1,0,0,1.3203883,0,42.131068)"
       gradientUnits="userSpaceOnUse"
       id="radialGradient3602"
       xlink:href="#linearGradient7824"
       inkscape:collect="always" />
    <radialGradient
       r="14.499996"
       fy="33.075127"
       fx="25.350018"
       cy="33.075127"
       cx="25.350018"
       gradientTransform="matrix(1.226297,0,0,0.592663,-5.64917,164.77259)"
       gradientUnits="userSpaceOnUse"
       id="radialGradient3600"
       xlink:href="#linearGradient3535"
       inkscape:collect="always" />
    <radialGradient
       r="10.108456"
       fy="3.2659137"
       fx="5.3851099"
       cy="3.2659137"
       cx="5.3851099"
       gradientTransform="matrix(1.242401,0,0,1.242401,-1.281477,-0.839422)"
       gradientUnits="userSpaceOnUse"
       id="radialGradient3598"
       xlink:href="#linearGradient3712"
       inkscape:collect="always" />
    <linearGradient
       y2="-134.38734"
       x2="19.23638"
       y1="-140.43388"
       x1="18.825819"
       gradientUnits="userSpaceOnUse"
       id="linearGradient3596"
       xlink:href="#linearGradient8431"
       inkscape:collect="always" />
    <radialGradient
       r="10.049342"
       fy="7.8025141"
       fx="9.3747082"
       cy="7.8025141"
       cx="9.3747082"
       gradientTransform="matrix(1.200799,0,0,1.200799,-1.921023,-1.565398)"
       gradientUnits="userSpaceOnUse"
       id="radialGradient3594"
       xlink:href="#linearGradient3752"
       inkscape:collect="always" />
    <radialGradient
       r="9.546875"
       fy="10.046875"
       fx="12.046875"
       cy="10.046875"
       cx="12.046875"
       gradientUnits="userSpaceOnUse"
       id="radialGradient3592"
       xlink:href="#linearGradient3734"
       inkscape:collect="always" />
    <inkscape:perspective
       sodipodi:type="inkscape:persp3d"
       inkscape:vp_x="0 : 24 : 1"
       inkscape:vp_y="0 : 1000 : 0"
       inkscape:vp_z="48 : 24 : 1"
       inkscape:persp3d-origin="24 : 16 : 1"
       id="perspective3534" />
    <linearGradient
       inkscape:collect="always"
       id="linearGradient8431">
      <stop
         style="stop-color:#ffffff;stop-opacity:1;"
         offset="0"
         id="stop8433" />
      <stop
         style="stop-color:#ffffff;stop-opacity:0;"
         offset="1"
         id="stop8435" />
    </linearGradient>
    <linearGradient
       inkscape:collect="always"
       id="linearGradient7824">
      <stop
         style="stop-color:#000000;stop-opacity:1;"
         offset="0"
         id="stop7826" />
      <stop
         style="stop-color:#000000;stop-opacity:0;"
         offset="1"
         id="stop7828" />
    </linearGradient>
    <linearGradient
       inkscape:collect="always"
       id="linearGradient7810">
      <stop
         style="stop-color:#ffffff;stop-opacity:1;"
         offset="0"
         id="stop7812" />
      <stop
         style="stop-color:#ffffff;stop-opacity:0;"
         offset="1"
         id="stop7814" />
    </linearGradient>
    <linearGradient
       id="linearGradient7802"
       inkscape:collect="always">
      <stop
         id="stop7804"
         offset="0"
         style="stop-color:#2e3436;stop-opacity:1" />
      <stop
         id="stop7806"
         offset="1"
         style="stop-color:#000000;stop-opacity:1" />
    </linearGradient>
    <linearGradient
       inkscape:collect="always"
       id="linearGradient7776">
      <stop
         style="stop-color:#2e3436;stop-opacity:1"
         offset="0"
         id="stop7778" />
      <stop
         style="stop-color:#000000;stop-opacity:1"
         offset="1"
         id="stop7780" />
    </linearGradient>
    <linearGradient
       inkscape:collect="always"
       id="linearGradient3535">
      <stop
         style="stop-color:white;stop-opacity:1;"
         offset="0"
         id="stop3537" />
      <stop
         style="stop-color:white;stop-opacity:0;"
         offset="1"
         id="stop3539" />
    </linearGradient>
    <linearGradient
       id="linearGradient3752">
      <stop
         id="stop3754"
         offset="0"
         style="stop-color:white;stop-opacity:1" />
      <stop
         style="stop-color:#fce94f;stop-opacity:1;"
         offset="0.80000001"
         id="stop3756" />
      <stop
         id="stop3758"
         offset="1"
         style="stop-color:#edd400;stop-opacity:1" />
    </linearGradient>
    <linearGradient
       inkscape:collect="always"
       id="linearGradient3734">
      <stop
         style="stop-color:black;stop-opacity:1;"
         offset="0"
         id="stop3736" />
      <stop
         style="stop-color:black;stop-opacity:0;"
         offset="1"
         id="stop3738" />
    </linearGradient>
    <linearGradient
       id="linearGradient3712">
      <stop
         id="stop3714"
         offset="0"
         style="stop-color:white;stop-opacity:1;" />
      <stop
         id="stop3716"
         offset="1"
         style="stop-color:white;stop-opacity:0.50570345" />
    </linearGradient>
    <inkscape:perspective
       sodipodi:type="inkscape:persp3d"
       inkscape:vp_x="0 : 24 : 1"
       inkscape:vp_y="0 : 1000 : 0"
       inkscape:vp_z="48 : 24 : 1"
       inkscape:persp3d-origin="24 : 16 : 1"
       id="perspective2812" />
    <linearGradient
       id="linearGradient2788">
      <stop
         style="stop-color:#c00;stop-opacity:1;"
         offset="0"
         id="stop2790" />
      <stop
         style="stop-color:#ad0000;stop-opacity:1;"
         offset="1"
         id="stop2792" />
    </linearGradient>
    <linearGradient
       inkscape:collect="always"
       xlink:href="#linearGradient4447"
       id="linearGradient2786"
       x1="16.573217"
       y1="12.237123"
       x2="17.905336"
       y2="41.063381"
       gradientUnits="userSpaceOnUse" />
    <linearGradient
       inkscape:collect="always"
       xlink:href="#linearGradient4465"
       id="linearGradient2784"
       x1="17.499428"
       y1="14.067684"
       x2="15.6875"
       y2="36.616074"
       gradientUnits="userSpaceOnUse" />
    <radialGradient
       inkscape:collect="always"
       xlink:href="#linearGradient4493"
       id="radialGradient2782"
       cx="16"
       cy="27.875"
       fx="16"
       fy="27.875"
       r="12.125"
       gradientTransform="matrix(1,0,0,0.28866,0,19.82861)"
       gradientUnits="userSpaceOnUse" />
    <radialGradient
       inkscape:collect="always"
       xlink:href="#linearGradient4510"
       id="radialGradient2780"
       cx="15.6875"
       cy="10.565164"
       fx="15.6875"
       fy="10.565164"
       r="14.5625"
       gradientTransform="matrix(3.390737,0,0,4.314717,-32.15161,-24.08889)"
       gradientUnits="userSpaceOnUse" />
    <radialGradient
       r="107.01897"
       fy="532.54828"
       fx="362.89709"
       cy="532.54828"
       cx="362.89709"
       gradientTransform="matrix(0.9972942,-7.3513969e-2,9.8558247e-2,1.3370461,-53.963234,-159.84715)"
       gradientUnits="userSpaceOnUse"
       id="radialGradient2778"
       xlink:href="#linearGradient3289"
       inkscape:collect="always" />
    <linearGradient
       y2="430.39148"
       x2="263.77576"
       y1="628.63928"
       x1="451.51355"
       gradientUnits="userSpaceOnUse"
       id="linearGradient2776"
       xlink:href="#linearGradient3820"
       inkscape:collect="always" />
    <linearGradient
       gradientUnits="userSpaceOnUse"
       y2="72.510857"
       x2="120.02"
       y1="20.292065"
       x1="23.941708"
       id="linearGradient2774"
       xlink:href="#linearGradient3890"
       inkscape:collect="always" />
    <linearGradient
       gradientUnits="userSpaceOnUse"
       y2="57.522266"
       x2="8.3090611"
       y1="106.92577"
       x1="106.7706"
       id="linearGradient2772"
       xlink:href="#linearGradient3882"
       inkscape:collect="always" />
    <linearGradient
       gradientUnits="userSpaceOnUse"
       y2="57.681183"
       x2="112.17697"
       y1="93.626801"
       x1="107.34633"
       id="linearGradient2770"
       xlink:href="#linearGradient3860"
       inkscape:collect="always" />
    <linearGradient
       gradientUnits="userSpaceOnUse"
       y2="69.157532"
       x2="16.346994"
       y1="41.762081"
       x1="19.714926"
       id="linearGradient2768"
       xlink:href="#linearGradient3860"
       inkscape:collect="always" />
    <linearGradient
       gradientUnits="userSpaceOnUse"
       y2="67.046021"
       x2="8.1741924"
       y1="111.89079"
       x1="54.575394"
       id="linearGradient2766"
       xlink:href="#linearGradient3852"
       inkscape:collect="always" />
    <linearGradient
       gradientUnits="userSpaceOnUse"
       y2="65.24749"
       x2="120.51624"
       y1="17.087339"
       x1="76.607124"
       id="linearGradient2764"
       xlink:href="#linearGradient3844"
       inkscape:collect="always" />
    <linearGradient
       gradientUnits="userSpaceOnUse"
       y2="430.39148"
       x2="263.77576"
       y1="628.63928"
       x1="451.51355"
       id="linearGradient2762"
       xlink:href="#linearGradient3820"
       inkscape:collect="always" />
    <radialGradient
       gradientUnits="userSpaceOnUse"
       gradientTransform="matrix(0.9972942,-7.3513969e-2,9.8558247e-2,1.3370461,-53.963234,-159.84715)"
       r="107.01897"
       fy="532.54828"
       fx="362.89709"
       cy="532.54828"
       cx="362.89709"
       id="radialGradient2759"
       xlink:href="#linearGradient3289"
       inkscape:collect="always" />
    <inkscape:perspective
       sodipodi:type="inkscape:persp3d"
       inkscape:vp_x="0 : 526.18109 : 1"
       inkscape:vp_y="0 : 1000 : 0"
       inkscape:vp_z="744.09448 : 526.18109 : 1"
       inkscape:persp3d-origin="372.04724 : 350.78739 : 1"
       id="perspective2757" />
    <inkscape:perspective
       id="perspective2755"
       inkscape:persp3d-origin="372.04724 : 350.78739 : 1"
       inkscape:vp_z="744.09448 : 526.18109 : 1"
       inkscape:vp_y="0 : 1000 : 0"
       inkscape:vp_x="0 : 526.18109 : 1"
       sodipodi:type="inkscape:persp3d" />
    <linearGradient
       id="linearGradient2749">
      <stop
         id="stop2751"
         offset="0"
         style="stop-color:#e9b96e;stop-opacity:1;" />
      <stop
         id="stop2753"
         offset="1"
         style="stop-color:#ce5c00;stop-opacity:1;" />
    </linearGradient>
    <linearGradient
       id="linearGradient2743">
      <stop
         id="stop2745"
         offset="0"
         style="stop-color:#ffffff;stop-opacity:1;" />
      <stop
         id="stop2747"
         offset="1"
         style="stop-color:#ffffff;stop-opacity:0;" />
    </linearGradient>
    <linearGradient
       id="linearGradient2737">
      <stop
         style="stop-color:#ffffff;stop-opacity:1;"
         offset="0"
         id="stop2739" />
      <stop
         style="stop-color:#ffffff;stop-opacity:0.749"
         offset="1"
         id="stop2741" />
    </linearGradient>
    <linearGradient
       id="linearGradient2731">
      <stop
         id="stop2733"
         offset="0"
         style="stop-color:#ad7fa8;stop-opacity:1;" />
      <stop
         id="stop2735"
         offset="1"
         style="stop-color:#5c3566;stop-opacity:1;" />
    </linearGradient>
    <linearGradient
       id="linearGradient2725">
      <stop
         id="stop2727"
         offset="0"
         style="stop-color:#729fcf;stop-opacity:1;" />
      <stop
         id="stop2729"
         offset="1"
         style="stop-color:#204a87;stop-opacity:1;" />
    </linearGradient>
    <linearGradient
       id="linearGradient2719">
      <stop
         id="stop2721"
         offset="0"
         style="stop-color:#fcaf3e;stop-opacity:1;" />
      <stop
         id="stop2723"
         offset="1"
         style="stop-color:#ce5c00;stop-opacity:1;" />
    </linearGradient>
    <linearGradient
       inkscape:collect="always"
       xlink:href="#linearGradient3860"
       id="linearGradient2953"
       gradientUnits="userSpaceOnUse"
       x1="19.714926"
       y1="41.762081"
       x2="16.346994"
       y2="69.157532" />
    <radialGradient
       inkscape:collect="always"
       xlink:href="#linearGradient4493"
       id="radialGradient2955"
       gradientUnits="userSpaceOnUse"
       gradientTransform="matrix(1,0,0,0.28866,0,19.82861)"
       cx="16"
       cy="27.875"
       fx="16"
       fy="27.875"
       r="12.125" />
    <linearGradient
       inkscape:collect="always"
       xlink:href="#linearGradient3860"
       id="linearGradient2957"
       gradientUnits="userSpaceOnUse"
       x1="107.34633"
       y1="93.626801"
       x2="112.17697"
       y2="57.681183" />
    <linearGradient
       inkscape:collect="always"
       xlink:href="#linearGradient3844"
       id="linearGradient2959"
       gradientUnits="userSpaceOnUse"
       x1="76.607124"
       y1="17.087339"
       x2="120.51624"
       y2="65.24749" />
    <linearGradient
       inkscape:collect="always"
       xlink:href="#linearGradient3852"
       id="linearGradient2961"
       gradientUnits="userSpaceOnUse"
       x1="54.575394"
       y1="111.89079"
       x2="8.1741924"
       y2="67.046021" />
    <linearGradient
       inkscape:collect="always"
       xlink:href="#linearGradient3890"
       id="linearGradient2963"
       gradientUnits="userSpaceOnUse"
       x1="23.941708"
       y1="20.292065"
       x2="120.02"
       y2="72.510857" />
    <linearGradient
       inkscape:collect="always"
       xlink:href="#linearGradient3882"
       id="linearGradient2965"
       gradientUnits="userSpaceOnUse"
       x1="106.7706"
       y1="106.92577"
       x2="8.3090611"
       y2="57.522266" />
    <linearGradient
       inkscape:collect="always"
       xlink:href="#linearGradient3882"
       id="linearGradient2968"
       gradientUnits="userSpaceOnUse"
       x1="106.7706"
       y1="106.92577"
       x2="8.3090611"
       y2="57.522266"
       gradientTransform="translate(-182.65277,12.704857)" />
    <linearGradient
       inkscape:collect="always"
       xlink:href="#linearGradient3890"
       id="linearGradient2971"
       gradientUnits="userSpaceOnUse"
       x1="23.941708"
       y1="20.292065"
       x2="120.02"
       y2="72.510857"
       gradientTransform="translate(-182.65277,12.704857)" />
    <linearGradient
       inkscape:collect="always"
       xlink:href="#linearGradient3852"
       id="linearGradient2974"
       gradientUnits="userSpaceOnUse"
       x1="54.575394"
       y1="111.89079"
       x2="8.1741924"
       y2="67.046021"
       gradientTransform="translate(-182.65277,12.704857)" />
    <linearGradient
       inkscape:collect="always"
       xlink:href="#linearGradient3844"
       id="linearGradient2977"
       gradientUnits="userSpaceOnUse"
       x1="76.607124"
       y1="17.087339"
       x2="120.51624"
       y2="65.24749"
       gradientTransform="translate(-182.65277,12.704857)" />
    <linearGradient
       inkscape:collect="always"
       xlink:href="#linearGradient3860"
       id="linearGradient2987"
       gradientUnits="userSpaceOnUse"
       x1="107.34633"
       y1="93.626801"
       x2="112.17697"
       y2="57.681183"
       gradientTransform="translate(-182.65277,12.704857)" />
    <linearGradient
       inkscape:collect="always"
       xlink:href="#linearGradient3860"
       id="linearGradient2993"
       gradientUnits="userSpaceOnUse"
       x1="19.714926"
       y1="41.762081"
       x2="16.346994"
       y2="69.157532"
       gradientTransform="translate(-182.65277,12.704857)" />
    <radialGradient
       inkscape:collect="always"
       xlink:href="#linearGradient5420"
       id="radialGradient2995"
       gradientUnits="userSpaceOnUse"
       gradientTransform="matrix(1,0,0,0.5,0,9.0625)"
       cx="11"
       cy="18.125"
       fx="11"
       fy="18.125"
       r="5.25" />
    <radialGradient
       inkscape:collect="always"
       xlink:href="#linearGradient3137"
       id="radialGradient2997"
       gradientUnits="userSpaceOnUse"
       gradientTransform="matrix(0.589326,0,0,0.5991918,8.2244474,8.7299055)"
       cx="5.0300417"
       cy="9.8295288"
       fx="5.0300417"
       fy="9.8295288"
       r="18.656607" />
    <radialGradient
       inkscape:collect="always"
       xlink:href="#linearGradient3137"
       id="radialGradient3005"
       gradientUnits="userSpaceOnUse"
       gradientTransform="matrix(0.589326,0,0,0.5991918,8.2244474,8.7299055)"
       cx="5.0300417"
       cy="9.8295288"
       fx="5.0300417"
       fy="9.8295288"
       r="18.656607" />
    <radialGradient
       inkscape:collect="always"
       xlink:href="#linearGradient3137"
       id="radialGradient3010"
       gradientUnits="userSpaceOnUse"
       gradientTransform="matrix(2.8343212,0,0,2.8005185,-135.51295,67.532968)"
       cx="5.0300417"
       cy="9.8295288"
       fx="5.0300417"
       fy="9.8295288"
       r="18.656607" />
    <radialGradient
       inkscape:collect="always"
       xlink:href="#linearGradient6404"
       id="radialGradient3017"
       gradientUnits="userSpaceOnUse"
       gradientTransform="matrix(37.740605,0,0,48.369884,-967.25487,-866.46018)"
       cx="27.5"
       cy="19.095654"
       fx="27.5"
       fy="19.095654"
       r="0.50000006" />
    <linearGradient
       y2="36.091892"
       x2="-32.440605"
       y1="9.2811022"
       x1="-32.440605"
       gradientUnits="userSpaceOnUse"
       id="linearGradient3073"
       xlink:href="#linearGradient3217"
       inkscape:collect="always" />
    <linearGradient
       y2="9.2042255"
       x2="-38.589565"
       y1="36.173767"
       x1="-38.589565"
       gradientUnits="userSpaceOnUse"
       id="linearGradient3071"
       xlink:href="#linearGradient3811"
       inkscape:collect="always" />
    <linearGradient
       y2="36.16877"
       x2="-32.440605"
       y1="15.690451"
       x1="-32.440605"
       gradientUnits="userSpaceOnUse"
       id="linearGradient3069"
       xlink:href="#linearGradient5106"
       inkscape:collect="always" />
    <radialGradient
       r="7.228416"
       fy="73.615715"
       fx="6.702713"
       cy="73.615715"
       cx="6.702713"
       gradientTransform="scale(1.902215,0.525703)"
       gradientUnits="userSpaceOnUse"
       id="radialGradient3067"
       xlink:href="#linearGradient10691"
       inkscape:collect="always" />
    <linearGradient
       y2="135.52234"
       x2="113.55812"
       y1="63.468361"
       x1="113.55812"
       gradientTransform="matrix(0.6396746,0,0,0.6396746,211.13928,-99.763587)"
       gradientUnits="userSpaceOnUse"
       id="linearGradient3021"
       xlink:href="#linearGradient3680"
       inkscape:collect="always" />
    <linearGradient
       y2="151.9344"
       x2="227.50426"
       y1="108.58191"
       x1="227.50426"
       gradientTransform="matrix(1.0909723,0,0,1.0909723,37.52887,-153.68624)"
       gradientUnits="userSpaceOnUse"
       id="linearGradient3018"
       xlink:href="#linearGradient2782"
       inkscape:collect="always" />
    <linearGradient
       y2="41.960365"
       x2="22.181572"
       y1="16.776871"
       x1="22.181572"
       gradientTransform="matrix(-1.1169482,0,0,1.1169482,-260.97684,51.77728)"
       gradientUnits="userSpaceOnUse"
       id="linearGradient4168"
       xlink:href="#linearGradient3680"
       inkscape:collect="always" />
    <linearGradient
       y2="49.56282"
       x2="28.62199"
       y1="18.218788"
       x1="28.62199"
       gradientTransform="matrix(1.2954437,0,0,1.2894619,-318.69057,44.99196)"
       gradientUnits="userSpaceOnUse"
       id="linearGradient2954"
       xlink:href="#linearGradient4222"
       inkscape:collect="always" />
    <linearGradient
       id="linearGradient3811">
      <stop
         id="stop3813"
         offset="0"
         style="stop-color:#204a87;stop-opacity:1;" />
      <stop
         id="stop3815"
         offset="1"
         style="stop-color:#3465a4;stop-opacity:1;" />
    </linearGradient>
    <linearGradient
       id="linearGradient3788">
      <stop
         id="stop3790"
         offset="0"
         style="stop-color:#707935;stop-opacity:1;" />
      <stop
         id="stop3792"
         offset="1"
         style="stop-color:#adb958;stop-opacity:1;" />
    </linearGradient>
    <linearGradient
       id="linearGradient3747">
      <stop
         style="stop-color:#797535;stop-opacity:1;"
         offset="0"
         id="stop3749" />
      <stop
         style="stop-color:#b9b358;stop-opacity:1;"
         offset="1"
         id="stop3751" />
    </linearGradient>
    <linearGradient
       id="linearGradient3724">
      <stop
         id="stop3726"
         offset="0"
         style="stop-color:#795e35;stop-opacity:1;" />
      <stop
         id="stop3728"
         offset="1"
         style="stop-color:#b99358;stop-opacity:1;" />
    </linearGradient>
    <linearGradient
       inkscape:collect="always"
       id="linearGradient3664">
      <stop
         style="stop-color:#793535;stop-opacity:1;"
         offset="0"
         id="stop3666" />
      <stop
         style="stop-color:#b95858;stop-opacity:1"
         offset="1"
         id="stop3668" />
    </linearGradient>
    <linearGradient
       id="linearGradient3952">
      <stop
         style="stop-color:#cfaa72;stop-opacity:1;"
         offset="0"
         id="stop3954" />
      <stop
         style="stop-color:#a68038;stop-opacity:1;"
         offset="1"
         id="stop3956" />
    </linearGradient>
    <linearGradient
       id="linearGradient3894">
      <stop
         id="stop3896"
         offset="0"
         style="stop-color:#e8e166;stop-opacity:1;" />
      <stop
         id="stop3898"
         offset="1"
         style="stop-color:#aba42a;stop-opacity:1;" />
    </linearGradient>
    <linearGradient
       id="linearGradient3680">
      <stop
         style="stop-color:#e86666;stop-opacity:1;"
         offset="0"
         id="stop3682" />
      <stop
         style="stop-color:#ab2a2a;stop-opacity:1;"
         offset="1"
         id="stop3684" />
    </linearGradient>
    <linearGradient
       id="linearGradient2264">
      <stop
         id="stop2266"
         offset="0"
         style="stop-color:#d7e866;stop-opacity:1;" />
      <stop
         id="stop2268"
         offset="1"
         style="stop-color:#8cab2a;stop-opacity:1;" />
    </linearGradient>
    <linearGradient
       id="linearGradient2781"
       inkscape:collect="always">
      <stop
         id="stop2783"
         offset="0"
         style="stop-color:black;stop-opacity:1;" />
      <stop
         id="stop2785"
         offset="1"
         style="stop-color:black;stop-opacity:0;" />
    </linearGradient>
    <linearGradient
       id="linearGradient2804">
      <stop
         id="stop2806"
         offset="0"
         style="stop-color:black;stop-opacity:0;" />
      <stop
         style="stop-color:black;stop-opacity:1;"
         offset="0.5"
         id="stop2812" />
      <stop
         id="stop2808"
         offset="1"
         style="stop-color:black;stop-opacity:0;" />
    </linearGradient>
    <radialGradient
       inkscape:collect="always"
       xlink:href="#linearGradient2781"
       id="radialGradient3636"
       gradientUnits="userSpaceOnUse"
       gradientTransform="matrix(2,0,0,0.8,-13,-79.2)"
       cx="1"
       cy="44"
       fx="1"
       fy="44"
       r="5" />
    <radialGradient
       inkscape:collect="always"
       xlink:href="#linearGradient2781"
       id="radialGradient3638"
       gradientUnits="userSpaceOnUse"
       gradientTransform="matrix(2,0,0,0.8,36,8.8)"
       cx="1"
       cy="44"
       fx="1"
       fy="44"
       r="5" />
    <linearGradient
       inkscape:collect="always"
       xlink:href="#linearGradient2804"
       id="linearGradient3640"
       gradientUnits="userSpaceOnUse"
       x1="21.875"
       y1="48.000977"
       x2="21.875"
       y2="40" />
    <linearGradient
       inkscape:collect="always"
       xlink:href="#linearGradient5106"
       id="linearGradient3642"
       gradientUnits="userSpaceOnUse"
       gradientTransform="matrix(0.6396746,0,0,0.6396746,129.44447,-38.965312)"
       x1="113.55812"
       y1="63.468361"
       x2="113.55812"
       y2="135.52234" />
    <linearGradient
       inkscape:collect="always"
       xlink:href="#linearGradient2782"
       id="linearGradient3644"
       gradientUnits="userSpaceOnUse"
       gradientTransform="matrix(1.0909723,0,0,1.0909723,-44.165936,-92.887963)"
       x1="227.50426"
       y1="108.58191"
       x2="227.50426"
       y2="151.9344" />
    <radialGradient
       inkscape:collect="always"
       xlink:href="#linearGradient2781"
       id="radialGradient3694"
       gradientUnits="userSpaceOnUse"
       gradientTransform="matrix(2,0,0,0.8,-13,-79.2)"
       cx="1"
       cy="44"
       fx="1"
       fy="44"
       r="5" />
    <radialGradient
       inkscape:collect="always"
       xlink:href="#linearGradient2781"
       id="radialGradient3696"
       gradientUnits="userSpaceOnUse"
       gradientTransform="matrix(2,0,0,0.8,36,8.8)"
       cx="1"
       cy="44"
       fx="1"
       fy="44"
       r="5" />
    <linearGradient
       inkscape:collect="always"
       xlink:href="#linearGradient2804"
       id="linearGradient3698"
       gradientUnits="userSpaceOnUse"
       x1="21.875"
       y1="48.000977"
       x2="21.875"
       y2="40" />
    <radialGradient
       inkscape:collect="always"
       xlink:href="#linearGradient2781"
       id="radialGradient3884"
       gradientUnits="userSpaceOnUse"
       gradientTransform="matrix(2,0,0,0.8,-13,-79.2)"
       cx="1"
       cy="44"
       fx="1"
       fy="44"
       r="5" />
    <radialGradient
       inkscape:collect="always"
       xlink:href="#linearGradient2781"
       id="radialGradient3886"
       gradientUnits="userSpaceOnUse"
       gradientTransform="matrix(2,0,0,0.8,36,8.8)"
       cx="1"
       cy="44"
       fx="1"
       fy="44"
       r="5" />
    <linearGradient
       inkscape:collect="always"
       xlink:href="#linearGradient2804"
       id="linearGradient4121"
       gradientUnits="userSpaceOnUse"
       x1="21.875"
       y1="48.000977"
       x2="21.875"
       y2="40" />
    <linearGradient
       inkscape:collect="always"
       xlink:href="#linearGradient3894"
       id="linearGradient4119"
       gradientUnits="userSpaceOnUse"
       gradientTransform="matrix(0.6396746,0,0,0.6396746,-106.05508,-37.653392)"
       x1="113.55812"
       y1="63.468361"
       x2="113.55812"
       y2="135.52234" />
    <linearGradient
       inkscape:collect="always"
       xlink:href="#linearGradient2782"
       id="linearGradient3892"
       gradientUnits="userSpaceOnUse"
       gradientTransform="matrix(1.0909723,0,0,1.0909723,-279.66549,-91.576043)"
       x1="227.50426"
       y1="108.58191"
       x2="227.50426"
       y2="151.9344" />
    <radialGradient
       inkscape:collect="always"
       xlink:href="#linearGradient2781"
       id="radialGradient3908"
       gradientUnits="userSpaceOnUse"
       gradientTransform="matrix(2,0,0,0.8,-13,-79.2)"
       cx="1"
       cy="44"
       fx="1"
       fy="44"
       r="5" />
    <radialGradient
       inkscape:collect="always"
       xlink:href="#linearGradient2781"
       id="radialGradient3910"
       gradientUnits="userSpaceOnUse"
       gradientTransform="matrix(2,0,0,0.8,36,8.8)"
       cx="1"
       cy="44"
       fx="1"
       fy="44"
       r="5" />
    <linearGradient
       inkscape:collect="always"
       xlink:href="#linearGradient2804"
       id="linearGradient3912"
       gradientUnits="userSpaceOnUse"
       x1="21.875"
       y1="48.000977"
       x2="21.875"
       y2="40" />
    <linearGradient
       inkscape:collect="always"
       xlink:href="#linearGradient2264"
       id="linearGradient3914"
       gradientUnits="userSpaceOnUse"
       gradientTransform="matrix(0.6396746,0,0,0.6396746,-258.50257,-37.867708)"
       x1="113.55812"
       y1="63.468361"
       x2="113.55812"
       y2="135.52234" />
    <linearGradient
       inkscape:collect="always"
       xlink:href="#linearGradient2782"
       id="linearGradient3916"
       gradientUnits="userSpaceOnUse"
       gradientTransform="matrix(1.0909723,0,0,1.0909723,-432.11298,-91.790359)"
       x1="227.50426"
       y1="108.58191"
       x2="227.50426"
       y2="151.9344" />
    <radialGradient
       inkscape:collect="always"
       xlink:href="#linearGradient2781"
       id="radialGradient3932"
       gradientUnits="userSpaceOnUse"
       gradientTransform="matrix(2,0,0,0.8,-13,-79.2)"
       cx="1"
       cy="44"
       fx="1"
       fy="44"
       r="5" />
    <radialGradient
       inkscape:collect="always"
       xlink:href="#linearGradient2781"
       id="radialGradient3934"
       gradientUnits="userSpaceOnUse"
       gradientTransform="matrix(2,0,0,0.8,36,8.8)"
       cx="1"
       cy="44"
       fx="1"
       fy="44"
       r="5" />
    <linearGradient
       inkscape:collect="always"
       xlink:href="#linearGradient2804"
       id="linearGradient4109"
       gradientUnits="userSpaceOnUse"
       x1="21.875"
       y1="48.000977"
       x2="21.875"
       y2="40" />
    <linearGradient
       inkscape:collect="always"
       xlink:href="#linearGradient2782"
       id="linearGradient3943"
       gradientUnits="userSpaceOnUse"
       gradientTransform="matrix(1.0909723,0,0,1.0909723,-511.14048,-91.6832)"
       x1="227.50426"
       y1="108.58191"
       x2="227.50426"
       y2="151.9344" />
    <linearGradient
       inkscape:collect="always"
       xlink:href="#linearGradient3952"
       id="linearGradient3946"
       gradientUnits="userSpaceOnUse"
       gradientTransform="matrix(0.6396746,0,0,0.6396746,-337.53007,-37.760549)"
       x1="113.55812"
       y1="63.468361"
       x2="113.55812"
       y2="135.52234" />
    <radialGradient
       inkscape:collect="always"
       xlink:href="#linearGradient10691"
       id="radialGradient2697"
       gradientUnits="userSpaceOnUse"
       gradientTransform="scale(1.902215,0.525703)"
       cx="6.702713"
       cy="73.615715"
       fx="6.702713"
       fy="73.615715"
       r="7.228416" />
    <linearGradient
       inkscape:collect="always"
       xlink:href="#linearGradient3680"
       id="linearGradient2699"
       gradientUnits="userSpaceOnUse"
       x1="-42.408554"
       y1="15.689731"
       x2="-42.408554"
       y2="36.16877" />
    <linearGradient
       inkscape:collect="always"
       xlink:href="#linearGradient3217"
       id="linearGradient2701"
       gradientUnits="userSpaceOnUse"
       x1="-32.440605"
       y1="9.2811022"
       x2="-32.440605"
       y2="36.091892" />
    <linearGradient
       inkscape:collect="always"
       id="linearGradient5105-262-943-861">
      <stop
         offset="0"
         id="stop2487"
         style="stop-color:#0d0d0d;stop-opacity:1;" />
      <stop
         offset="1"
         id="stop2489"
         style="stop-color:#0d0d0d;stop-opacity:0;" />
    </linearGradient>
    <linearGradient
       id="linearGradient4222"
       inkscape:collect="always">
      <stop
         id="stop4224"
         offset="0"
         style="stop-color:#ffffff;stop-opacity:1;" />
      <stop
         id="stop4226"
         offset="1"
         style="stop-color:#ffffff;stop-opacity:0;" />
    </linearGradient>
    <radialGradient
       inkscape:collect="always"
       xlink:href="#linearGradient5105-262-943-861"
       id="radialGradient3761"
       gradientUnits="userSpaceOnUse"
       gradientTransform="matrix(1,0,0,0.282946,0,13.64644)"
       cx="11.25"
       cy="19.03125"
       fx="11.25"
       fy="19.03125"
       r="8.0625" />
    <radialGradient
       inkscape:collect="always"
       xlink:href="#linearGradient5105-262-943-861"
       id="radialGradient3767"
       gradientUnits="userSpaceOnUse"
       gradientTransform="matrix(1,0,0,0.282946,0,13.64644)"
       cx="11.25"
       cy="19.03125"
       fx="11.25"
       fy="19.03125"
       r="8.0625" />
    <linearGradient
       inkscape:collect="always"
       xlink:href="#linearGradient3952"
       id="linearGradient3769"
       gradientUnits="userSpaceOnUse"
       gradientTransform="matrix(-1.1169482,0,0,1.1169482,119.74108,113.67628)"
       x1="22.181572"
       y1="16.776871"
       x2="22.181572"
       y2="41.960365" />
    <linearGradient
       inkscape:collect="always"
       xlink:href="#linearGradient4222"
       id="linearGradient3771"
       gradientUnits="userSpaceOnUse"
       gradientTransform="matrix(1.2954437,0,0,1.2894619,62.02735,106.89096)"
       x1="28.62199"
       y1="18.218788"
       x2="28.62199"
       y2="49.56282" />
    <radialGradient
       inkscape:collect="always"
       xlink:href="#linearGradient5105-262-943-861"
       id="radialGradient3773"
       gradientUnits="userSpaceOnUse"
       gradientTransform="matrix(1,0,0,0.282946,0,13.64644)"
       cx="11.25"
       cy="19.03125"
       fx="11.25"
       fy="19.03125"
       r="8.0625" />
    <linearGradient
       inkscape:collect="always"
       xlink:href="#linearGradient3894"
       id="linearGradient3775"
       gradientUnits="userSpaceOnUse"
       gradientTransform="matrix(-1.1169482,0,0,1.1169482,179.14953,112.3706)"
       x1="22.181572"
       y1="16.776871"
       x2="22.181572"
       y2="41.960365" />
    <linearGradient
       inkscape:collect="always"
       xlink:href="#linearGradient4222"
       id="linearGradient3777"
       gradientUnits="userSpaceOnUse"
       gradientTransform="matrix(1.2954437,0,0,1.2894619,121.4358,105.58528)"
       x1="28.62199"
       y1="18.218788"
       x2="28.62199"
       y2="49.56282" />
    <radialGradient
       inkscape:collect="always"
       xlink:href="#linearGradient5105-262-943-861"
       id="radialGradient3779"
       gradientUnits="userSpaceOnUse"
       gradientTransform="matrix(1,0,0,0.282946,0,13.64644)"
       cx="11.25"
       cy="19.03125"
       fx="11.25"
       fy="19.03125"
       r="8.0625" />
    <linearGradient
       inkscape:collect="always"
       xlink:href="#linearGradient2264"
       id="linearGradient3781"
       gradientUnits="userSpaceOnUse"
       gradientTransform="matrix(-1.1169482,0,0,1.1169482,238.26831,107.91711)"
       x1="22.181572"
       y1="16.776871"
       x2="22.181572"
       y2="41.960365" />
    <linearGradient
       inkscape:collect="always"
       xlink:href="#linearGradient4222"
       id="linearGradient3783"
       gradientUnits="userSpaceOnUse"
       gradientTransform="matrix(1.2954437,0,0,1.2894619,180.55458,101.13179)"
       x1="28.62199"
       y1="18.218788"
       x2="28.62199"
       y2="49.56282" />
    <radialGradient
       inkscape:collect="always"
       xlink:href="#linearGradient5105-262-943-861"
       id="radialGradient3785"
       gradientUnits="userSpaceOnUse"
       gradientTransform="matrix(1,0,0,0.282946,0,13.64644)"
       cx="11.25"
       cy="19.03125"
       fx="11.25"
       fy="19.03125"
       r="8.0625" />
    <linearGradient
       inkscape:collect="always"
       xlink:href="#linearGradient5106"
       id="linearGradient3787"
       gradientUnits="userSpaceOnUse"
       gradientTransform="matrix(-1.1169482,0,0,1.1169482,298.94568,111.06492)"
       x1="22.181572"
       y1="16.776871"
       x2="22.181572"
       y2="41.960365" />
    <linearGradient
       inkscape:collect="always"
       xlink:href="#linearGradient4222"
       id="linearGradient3789"
       gradientUnits="userSpaceOnUse"
       gradientTransform="matrix(1.2954437,0,0,1.2894619,241.23195,104.2796)"
       x1="28.62199"
       y1="18.218788"
       x2="28.62199"
       y2="49.56282" />
    <linearGradient
       inkscape:collect="always"
       xlink:href="#linearGradient3664"
       id="linearGradient3670"
       x1="-32.440605"
       y1="36.16877"
       x2="-32.440605"
       y2="9.1776199"
       gradientUnits="userSpaceOnUse" />
    <radialGradient
       inkscape:collect="always"
       xlink:href="#linearGradient10691"
       id="radialGradient3707"
       gradientUnits="userSpaceOnUse"
       gradientTransform="scale(1.902215,0.525703)"
       cx="6.702713"
       cy="73.615715"
       fx="6.702713"
       fy="73.615715"
       r="7.228416" />
    <linearGradient
       inkscape:collect="always"
       xlink:href="#linearGradient3952"
       id="linearGradient3709"
       gradientUnits="userSpaceOnUse"
       x1="-34.757557"
       y1="15.727821"
       x2="-34.757557"
       y2="36.16877" />
    <linearGradient
       inkscape:collect="always"
       xlink:href="#linearGradient3217"
       id="linearGradient3711"
       gradientUnits="userSpaceOnUse"
       x1="-32.440605"
       y1="9.2811022"
       x2="-32.440605"
       y2="36.091892" />
    <linearGradient
       inkscape:collect="always"
       xlink:href="#linearGradient3724"
       id="linearGradient3722"
       x1="-33.739498"
       y1="36.200035"
       x2="-33.739498"
       y2="9.2042255"
       gradientUnits="userSpaceOnUse" />
    <radialGradient
       inkscape:collect="always"
       xlink:href="#linearGradient10691"
       id="radialGradient3730"
       gradientUnits="userSpaceOnUse"
       gradientTransform="scale(1.902215,0.525703)"
       cx="6.702713"
       cy="73.615715"
       fx="6.702713"
       fy="73.615715"
       r="7.228416" />
    <linearGradient
       inkscape:collect="always"
       xlink:href="#linearGradient3894"
       id="linearGradient3732"
       gradientUnits="userSpaceOnUse"
       x1="-37.258842"
       y1="15.724115"
       x2="-37.258842"
       y2="36.16877" />
    <linearGradient
       inkscape:collect="always"
       xlink:href="#linearGradient3217"
       id="linearGradient4076"
       gradientUnits="userSpaceOnUse"
       x1="-32.440605"
       y1="9.2811022"
       x2="-32.440605"
       y2="36.091892" />
    <linearGradient
       inkscape:collect="always"
       xlink:href="#linearGradient3747"
       id="linearGradient3745"
       x1="-30.275162"
       y1="36.195995"
       x2="-30.275162"
       y2="9.2042255"
       gradientUnits="userSpaceOnUse" />
    <radialGradient
       inkscape:collect="always"
       xlink:href="#linearGradient10691"
       id="radialGradient3763"
       gradientUnits="userSpaceOnUse"
       gradientTransform="scale(1.902215,0.525703)"
       cx="6.702713"
       cy="73.615715"
       fx="6.702713"
       fy="73.615715"
       r="7.228416" />
    <linearGradient
       inkscape:collect="always"
       xlink:href="#linearGradient2264"
       id="linearGradient3766"
       gradientUnits="userSpaceOnUse"
       x1="-29.607843"
       y1="15.727821"
       x2="-29.607843"
       y2="36.16877" />
    <linearGradient
       inkscape:collect="always"
       xlink:href="#linearGradient3217"
       id="linearGradient3768"
       gradientUnits="userSpaceOnUse"
       x1="-32.440605"
       y1="9.2811022"
       x2="-32.440605"
       y2="36.091892" />
    <linearGradient
       inkscape:collect="always"
       xlink:href="#linearGradient3788"
       id="linearGradient3779"
       x1="-39.9753"
       y1="36.186611"
       x2="-39.9753"
       y2="9.2042255"
       gradientUnits="userSpaceOnUse" />
    <radialGradient
       inkscape:collect="always"
       xlink:href="#linearGradient10691"
       id="radialGradient3794"
       gradientUnits="userSpaceOnUse"
       gradientTransform="scale(1.902215,0.525703)"
       cx="6.702713"
       cy="73.615715"
       fx="6.702713"
       fy="73.615715"
       r="7.228416" />
    <linearGradient
       inkscape:collect="always"
       xlink:href="#linearGradient5106"
       id="linearGradient3796"
       gradientUnits="userSpaceOnUse"
       x1="-32.440605"
       y1="15.690451"
       x2="-32.440605"
       y2="36.16877" />
    <linearGradient
       inkscape:collect="always"
       xlink:href="#linearGradient3217"
       id="linearGradient3798"
       gradientUnits="userSpaceOnUse"
       x1="-32.440605"
       y1="9.2811022"
       x2="-32.440605"
       y2="36.091892" />
    <linearGradient
       inkscape:collect="always"
       xlink:href="#linearGradient3811"
       id="linearGradient3809"
       x1="-38.589565"
       y1="36.173767"
       x2="-38.589565"
       y2="9.2042255"
       gradientUnits="userSpaceOnUse" />
    <linearGradient
       y2="35.131012"
       x2="-39.712002"
       y1="16.501879"
       x1="-39.712002"
       gradientUnits="userSpaceOnUse"
       id="linearGradient2568"
       xlink:href="#linearGradient5106"
       inkscape:collect="always" />
    <linearGradient
       y2="39.811832"
       x2="-32.440605"
       y1="9.2811022"
       x1="-32.440605"
       gradientUnits="userSpaceOnUse"
       id="linearGradient2563"
       xlink:href="#linearGradient3217"
       inkscape:collect="always" />
    <radialGradient
       r="7.228416"
       fy="73.615715"
       fx="6.702713"
       cy="73.615715"
       cx="6.702713"
       gradientTransform="scale(1.902215,0.525703)"
       gradientUnits="userSpaceOnUse"
       id="radialGradient2559"
       xlink:href="#linearGradient10691"
       inkscape:collect="always" />
    <linearGradient
       id="linearGradient3217"
       inkscape:collect="always">
      <stop
         id="stop3219"
         offset="0"
         style="stop-color:#ffffff;stop-opacity:1;" />
      <stop
         id="stop3221"
         offset="1"
         style="stop-color:#ffffff;stop-opacity:0" />
    </linearGradient>
    <linearGradient
       inkscape:collect="always"
       id="linearGradient2782">
      <stop
         style="stop-color:white;stop-opacity:1;"
         offset="0"
         id="stop2784" />
      <stop
         style="stop-color:white;stop-opacity:0;"
         offset="1"
         id="stop2786" />
    </linearGradient>
    <linearGradient
       id="linearGradient5106">
      <stop
         style="stop-color:#729fcf;stop-opacity:1;"
         offset="0"
         id="stop5108" />
      <stop
         style="stop-color:#3465a4;stop-opacity:1;"
         offset="1"
         id="stop5110" />
    </linearGradient>
    <inkscape:perspective
       id="perspective195"
       inkscape:persp3d-origin="24 : 16 : 1"
       inkscape:vp_z="48 : 24 : 1"
       inkscape:vp_y="0 : 1000 : 0"
       inkscape:vp_x="0 : 24 : 1"
       sodipodi:type="inkscape:persp3d" />
  </defs>
  <sodipodi:namedview
     id="base"
     pagecolor="#ffffff"
     bordercolor="#666666"
     borderopacity="1.0"
     gridtolerance="10000"
     guidetolerance="10"
     objecttolerance="10"
     inkscape:pageopacity="0.0"
     inkscape:pageshadow="2"
     inkscape:zoom="2.8945313"
     inkscape:cx="95.956816"
     inkscape:cy="65.134164"
     inkscape:document-units="px"
     inkscape:current-layer="layer1"
     showgrid="false"
     inkscape:window-width="1130"
     inkscape:window-height="811"
     inkscape:window-x="340"
     inkscape:window-y="138" />
  <metadata
     id="metadata7">
    <rdf:RDF>
      <cc:Work
         rdf:about="">
        <dc:format>image/svg+xml</dc:format>
        <dc:type
           rdf:resource="http://purl.org/dc/dcmitype/StillImage" />
      </cc:Work>
    </rdf:RDF>
  </metadata>
  <g
     inkscape:label="Layer 1"
     inkscape:groupmode="layer"
     id="layer1">
    <path
       style="fill:url(#linearGradient3866);fill-opacity:1;fill-rule:evenodd;stroke:#3465a4;stroke-width:2;stroke-linecap:butt;stroke-linejoin:miter;stroke-opacity:1;stroke-miterlimit:4;stroke-dasharray:none"
       d="M 67.622999,41.610512 C 67.622999,41.610512 32.352158,34.275645 15.44036,44.871927 C -0.73240474,55.00516 16.527482,75.097128 16.527482,75.097128 C 16.527482,75.097128 20.876046,59.004726 36.095986,53.569032 C 51.315922,48.133343 68.710136,40.523375 67.622999,41.610512 z"
       id="path3222"
       sodipodi:nodetypes="cscsc" />
    <g
       inkscape:label="Layer 1"
       id="g3459"
       transform="matrix(3.2142631,0,0,3.2142631,1552.4566,-23.680188)"
       style="opacity:0.75">
      <g
         id="g7435"
         transform="matrix(1.566667,0,0,1.566667,-8.925566,-23.94764)">
        <path
           transform="matrix(1.048831,0,0,1.266216,-306.5671,5.6173384)"
           d="M 28.125,27.875 A 12.125,3.5 0 1 1 3.875,27.875 A 12.125,3.5 0 1 1 28.125,27.875 z"
           sodipodi:ry="3.5"
           sodipodi:rx="12.125"
           sodipodi:cy="27.875"
           sodipodi:cx="16"
           id="path4491"
           style="opacity:1;fill:url(#radialGradient4499);fill-opacity:1;fill-rule:nonzero;stroke:none;stroke-width:1;stroke-linecap:butt;stroke-linejoin:miter;marker:none;marker-start:none;marker-mid:none;marker-end:none;stroke-miterlimit:4;stroke-dasharray:none;stroke-dashoffset:0;stroke-opacity:1;visibility:visible;display:inline;overflow:visible"
           sodipodi:type="arc" />
      </g>
    </g>
    <path
       style="fill:url(#linearGradient3874);fill-opacity:1;fill-rule:evenodd;stroke:#75507b;stroke-width:2;stroke-linecap:butt;stroke-linejoin:miter;stroke-opacity:1;stroke-miterlimit:4;stroke-dasharray:none"
       d="M 60.258156,86.334805 C 60.258156,86.334805 95.611197,93.799747 112.44079,83.07339 C 128.61356,72.765664 112.05164,53.022682 112.05164,53.022682 C 112.05164,53.022682 107.0051,68.940591 91.785169,74.376285 C 76.565233,79.811975 59.171019,87.421943 60.258156,86.334805 z"
       id="path3230"
       sodipodi:nodetypes="cscsc" />
    <path
       sodipodi:type="star"
       style="fill:url(#radialGradient2870);fill-opacity:1;stroke:#ce5c00;stroke-width:1.41832316;stroke-linecap:round;stroke-linejoin:round;stroke-miterlimit:4;stroke-dasharray:none;stroke-dashoffset:0;stroke-opacity:1"
       id="path3430"
       sodipodi:sides="9"
       sodipodi:cx="1.5"
       sodipodi:cy="0.56249994"
       sodipodi:r1="17.531784"
       sodipodi:r2="28.247856"
       sodipodi:arg1="0.8197281"
       sodipodi:arg2="1.168794"
       inkscape:flatsided="false"
       inkscape:rounded="0"
       inkscape:randomized="0"
       d="M 13.46404,13.377538 L 12.552308,26.55842 L 2.4276384,18.069725 L -6.7432965,27.580817 L -9.0428153,14.570087 L -22.181771,15.961042 L -15.580169,4.5161432 L -26.539281,-2.8638809 L -14.125521,-7.3877544 L -17.7769,-20.085563 L -5.3595186,-15.57164 L 0.0053563245,-27.645786 L 6.6161288,-16.206182 L 18.486973,-22.007039 L 16.197883,-8.9944711 L 29.020197,-5.8077543 L 18.902334,2.6890523 L 26.676414,13.372244 L 13.46404,13.377538 z"
       transform="matrix(1.7366063,0.390526,-0.3878708,1.7248796,60.424373,63.610156)" />
    <path
       sodipodi:type="inkscape:offset"
       inkscape:radius="-1.2811146"
       inkscape:original="M 0 -27.65625 L -5.375 -15.5625 L -17.78125 -20.09375 L -14.125 -7.375 L -26.53125 -2.875 L -15.59375 4.53125 L -22.1875 15.96875 L -9.03125 14.5625 L -6.75 27.59375 L 2.4375 18.0625 L 12.5625 26.5625 L 13.46875 13.375 L 26.6875 13.375 L 18.90625 2.6875 L 29.03125 -5.8125 L 16.1875 -9 L 18.5 -22 L 6.625 -16.21875 L 0 -27.65625 z "
       style="opacity:0.46551723;fill:none;fill-opacity:1;stroke:url(#linearGradient2872);stroke-width:1.43240833;stroke-linecap:round;stroke-linejoin:miter;stroke-miterlimit:4;stroke-dasharray:none;stroke-dashoffset:0;stroke-opacity:1"
       id="path3432"
       d="M 0.15625,-24.84375 L -4.21875,-15.03125 C -4.4902212,-14.422336 -5.1832918,-14.123364 -5.8125,-14.34375 L -15.875,-18.03125 L -12.90625,-7.71875 C -12.716198,-7.0735936 -13.057344,-6.3913021 -13.6875,-6.15625 L -23.71875,-2.53125 L -14.875,3.46875 C -14.321167,3.8398852 -14.144502,4.5737247 -14.46875,5.15625 L -19.8125,14.40625 L -9.15625,13.28125 C -8.4910776,13.223021 -7.8927034,13.685401 -7.78125,14.34375 L -5.9375,24.90625 L 1.5,17.1875 C 1.9674099,16.69981 2.7331623,16.658787 3.25,17.09375 L 11.4375,23.96875 L 12.1875,13.28125 C 12.236706,12.610485 12.796185,12.091944 13.46875,12.09375 L 24.1875,12.09375 L 17.875,3.4375 C 17.490777,2.8946424 17.585797,2.148058 18.09375,1.71875 L 26.28125,-5.15625 L 15.875,-7.75 C 15.22645,-7.9190262 14.817751,-8.5593202 14.9375,-9.21875 L 16.8125,-19.75 L 7.1875,-15.0625 C 6.5892476,-14.774994 5.870476,-14.991981 5.53125,-15.5625 L 0.15625,-24.84375 z"
       transform="matrix(1.7195177,0.3866888,-0.384054,1.7079303,60.668832,63.623962)" />
    <path
       style="fill:url(#linearGradient3850);fill-opacity:1;fill-rule:evenodd;stroke:#75507b;stroke-width:2;stroke-linecap:butt;stroke-linejoin:miter;stroke-opacity:1;stroke-miterlimit:4;stroke-dasharray:none"
       d="M 116.78933,78.942266 C 116.78933,78.942266 142.88065,39.805288 98.307994,12.626832 C 53.735325,-14.551625 15.685489,24.585352 15.685489,24.585352 C 15.685489,24.585352 35.253977,13.713969 80.913785,31.108179 C 126.5736,48.502394 116.34621,79.895091 116.78933,78.942266 z"
       id="path3232"
       sodipodi:nodetypes="cscsc" />
    <path
       style="fill:url(#linearGradient3858);fill-opacity:1;fill-rule:evenodd;stroke:#3465a4;stroke-width:2;stroke-linecap:butt;stroke-linejoin:miter;stroke-opacity:1;stroke-miterlimit:4;stroke-dasharray:none"
       d="M 10.917326,49.003052 C 10.917326,49.003052 -14.9995,88.140029 29.573159,115.31849 C 74.14583,142.49694 112.19567,103.35996 112.19567,103.35996 C 112.19567,103.35996 92.627178,114.23135 46.96737,96.837138 C 1.3075463,79.442924 11.883923,47.526746 10.917326,49.003052 z"
       id="path3220"
       sodipodi:nodetypes="cscsc" />
    <path
       style="opacity:0.75000000000000000;fill:none;fill-opacity:1;fill-rule:evenodd;stroke:url(#linearGradient3896);stroke-width:2;stroke-linecap:round;stroke-linejoin:round;stroke-opacity:1;stroke-miterlimit:4;stroke-dasharray:none"
       d="M 118.77161,71.487439 C 118.77161,71.487439 133.49203,38.270036 101.28914,16.53006 C 59.30602,-11.81248 21.832396,21.031437 21.832396,21.031437 C 21.832396,21.031437 37.36133,12.60056 81.676373,29.503744 C 124.54911,45.856786 118.34131,72.409994 118.77161,71.487439 z"
       id="path3876"
       sodipodi:nodetypes="cscsc" />
    <path
       style="opacity:0.75000000000000000;fill:none;fill-opacity:1;fill-rule:evenodd;stroke:url(#linearGradient3888);stroke-width:2;stroke-linecap:round;stroke-linejoin:round;stroke-miterlimit:4;stroke-dasharray:none;stroke-opacity:1"
       d="M 8.8313799,56.075879 C 8.8313799,56.075879 -5.8890401,89.293284 26.313849,111.03326 C 68.296973,139.3758 105.7706,106.53188 105.7706,106.53188 C 105.7706,106.53188 90.241659,114.96276 45.92662,98.059576 C 3.0538799,81.706534 9.2616799,55.153329 8.8313799,56.075879 z"
       id="path3880"
       sodipodi:nodetypes="cscsc" />
    <g
       id="layer6"
       inkscape:label="Shadow"
       transform="translate(69.035072,80.840115)" />
    <g
       style="display:inline"
       inkscape:label="Base"
       id="g2161"
       transform="translate(69.035072,80.840115)" />
    <g
       id="layer5"
       inkscape:label="shadiw"
       transform="translate(15.97701,55.625296)" />
    <g
       id="g2516"
       inkscape:label="Shadow"
       transform="translate(64.616632,79.419959)" />
    <g
       style="display:inline"
       inkscape:label="Base"
       id="g2518"
       transform="translate(64.616632,79.419959)" />
    <g
       id="g2520"
       inkscape:label="shadiw"
       transform="translate(11.55857,54.20514)" />
    <g
       id="g2482"
       inkscape:label="Shadow"
       transform="translate(48.630282,79.700483)" />
    <g
       style="display:inline"
       inkscape:label="Base"
       id="g2484"
       transform="translate(48.630282,79.700483)" />
    <g
       id="g2486"
       inkscape:label="shadiw"
       transform="translate(-4.42778,54.485664)" />
    <g
       id="g2309"
       inkscape:label="Shadow"
       transform="translate(65.978792,83.219441)" />
    <g
       style="display:inline"
       inkscape:label="Base"
       id="g2311"
       transform="translate(65.978792,83.219441)" />
    <g
       id="g2313"
       inkscape:label="shadiw"
       transform="translate(12.92073,58.004622)" />
    <g
       id="g2511"
       inkscape:label="Shadow"
       transform="translate(-58.96437,89.844281)" />
    <g
       style="display:inline"
       inkscape:label="Base"
       id="g2513"
       transform="translate(-58.96437,89.844281)" />
    <g
       id="g2515"
       inkscape:label="shadiw"
       transform="translate(-112.02243,64.629463)" />
    <g
       id="g2820"
       inkscape:label="Shadow"
       transform="translate(-68.74157,53.96349)" />
    <g
       style="display:inline"
       inkscape:label="Base"
       id="g2170"
       transform="translate(-68.74157,53.96349)" />
    <g
       inkscape:label="Layer 1"
       id="g5398"
       transform="translate(-197.27176,82.490489)" />
    <g
       id="g2824"
       inkscape:label="shadiw"
       transform="translate(-197.27176,82.490489)" />
    <g
       id="layer4"
       inkscape:label="white"
       transform="translate(-197.27176,82.490489)" />
    <g
       transform="translate(-276.26937,74.135644)"
       style="display:inline"
       id="g3678"
       inkscape:label="Layer 1" />
    <g
       transform="translate(-276.26937,74.135644)"
       inkscape:label="bottom"
       id="g3680" />
    <g
       transform="translate(-276.26937,74.135644)"
       style="display:inline"
       inkscape:label="back"
       id="layer2" />
    <g
       id="g3698"
       inkscape:label="shadiw"
       transform="translate(-119.74507,83.04325)" />
    <g
       id="g3760"
       inkscape:label="shadiw"
       transform="translate(48.58364,88.303519)" />
    <g
       transform="translate(-305.60596,48.090521)"
       inkscape:label="Shadow"
       id="g5431" />
    <g
       transform="translate(-305.60596,48.090521)"
       id="g4258"
       inkscape:label="Base"
       style="display:inline" />
    <g
       transform="translate(-305.60596,48.090521)"
       inkscape:label="new"
       id="g5440" />
    <g
       transform="translate(-274.16885,62.331618)"
       style="display:inline"
       id="g3928"
       inkscape:label="Layer 1" />
    <g
       transform="translate(-274.16885,62.331618)"
       inkscape:label="bottom"
       id="g3930" />
    <g
       transform="translate(-274.16885,62.331618)"
       style="display:inline"
       inkscape:label="back"
       id="g3932" />
    <g
       id="g3934"
       inkscape:label="shadiw"
       transform="translate(-117.64455,71.239224)" />
    <g
       id="g3936"
       inkscape:label="shadiw"
       transform="translate(50.68416,76.499493)" />
    <g
       transform="translate(-303.50544,36.286495)"
       inkscape:label="Shadow"
       id="g3961" />
    <g
       transform="translate(-303.50544,36.286495)"
       id="g3963"
       inkscape:label="Base"
       style="display:inline" />
    <g
       transform="translate(-303.50544,36.286495)"
       inkscape:label="new"
       id="layer7" />
    <g
       id="g2561"
       inkscape:label="Shadow"
       transform="translate(-346.89376,89.525896)" />
    <g
       style="display:inline"
       inkscape:label="Base"
       id="g2878"
       transform="translate(-346.89376,89.525896)" />
    <g
       id="g2564"
       inkscape:label="shadiw"
       transform="translate(-399.95182,64.311077)" />
    <g
       id="g2790"
       inkscape:label="Shadow"
       transform="translate(-60.82756,81.014455)" />
    <g
       style="display:inline"
       inkscape:label="Base"
       id="g2792"
       transform="translate(-60.82756,81.014455)" />
    <g
       inkscape:label="Layer 1"
       id="g2794"
       transform="translate(-189.35775,109.54146)" />
    <g
       id="g2796"
       inkscape:label="shadiw"
       transform="translate(-189.35775,109.54146)" />
    <g
       id="g2798"
       inkscape:label="white"
       transform="translate(-189.35775,109.54146)" />
    <g
       transform="translate(-268.35536,101.18661)"
       style="display:inline"
       id="g2800"
       inkscape:label="Layer 1" />
    <g
       transform="translate(-268.35536,101.18661)"
       inkscape:label="bottom"
       id="g2802" />
    <g
       transform="translate(-268.35536,101.18661)"
       style="display:inline"
       inkscape:label="back"
       id="g2804" />
    <g
       id="g2806"
       inkscape:label="shadiw"
       transform="translate(-111.83106,110.09422)" />
    <g
       id="g2808"
       inkscape:label="shadiw"
       transform="translate(56.49765,115.35449)" />
    <g
       transform="translate(-297.69195,75.141486)"
       inkscape:label="Shadow"
       id="g2810" />
    <g
       transform="translate(-297.69195,75.141486)"
       id="g2812"
       inkscape:label="Base"
       style="display:inline" />
    <g
       transform="translate(-297.69195,75.141486)"
       inkscape:label="new"
       id="g2814" />
    <g
       transform="translate(-266.25484,89.382583)"
       style="display:inline"
       id="g2816"
       inkscape:label="Layer 1" />
    <g
       transform="translate(-266.25484,89.382583)"
       inkscape:label="bottom"
       id="g2913" />
    <g
       transform="translate(-266.25484,89.382583)"
       style="display:inline"
       inkscape:label="back"
       id="g2915" />
    <g
       id="g2823"
       inkscape:label="shadiw"
       transform="translate(-109.73054,98.290189)" />
    <g
       id="g2825"
       inkscape:label="shadiw"
       transform="translate(58.59817,103.55046)" />
    <g
       transform="translate(-295.59143,63.33746)"
       inkscape:label="Shadow"
       id="g2827" />
    <g
       transform="translate(-295.59143,63.33746)"
       id="g2829"
       inkscape:label="Base"
       style="display:inline" />
    <g
       transform="translate(-295.59143,63.33746)"
       inkscape:label="new"
       id="g2831" />
    <path
       id="path9053"
       style="font-size:72px;font-style:normal;font-weight:bold;fill:#000000;fill-opacity:1;stroke:none;stroke-width:1;stroke-linecap:round;stroke-linejoin:round;stroke-miterlimit:4;stroke-dasharray:none;stroke-opacity:1;font-family:Standard Symbols L"
       d="M 65.593487,74.513383 C 65.500029,70.793522 65.919239,67.232837 68.313805,63.942597 C 68.462725,63.663413 70.156782,61.972848 71.080646,60.792356 C 72.964019,58.385861 74.18554,55.986006 73.955381,53.088178 C 73.881376,48.973598 69.783548,45.749378 65.150751,45.285792 C 59.93961,44.480895 53.583668,46.04203 51.837444,50.579499 C 50.951807,52.786367 51.722579,57.705304 54.694795,57.705304 C 56.433238,57.705304 58.469024,56.124969 58.600212,54.979625 C 58.699464,54.113017 57.370297,53.18764 57.181842,52.471816 C 56.967113,51.656184 57.808016,50.933953 58.806381,50.289881 C 59.640629,49.751683 60.513484,49.571213 60.64214,49.536739 C 63.638162,48.733956 66.675293,49.598139 67.921366,51.756392 C 69.167423,53.914642 67.568612,57.3903 65.596665,60.573796 C 63.624686,63.757293 61.407415,67.903379 61.415875,71.74395 C 61.415875,73.206058 61.299025,73.702771 61.382035,74.294305 C 61.448375,74.766922 64.569096,74.507795 65.593487,74.513383 z M 63.594918,78.737317 C 60.730233,78.563928 58.747476,82.184721 60.468436,84.491657 C 62.005329,87.038753 66.314443,86.409963 67.05303,83.525659 C 67.820872,81.282722 65.973012,78.699884 63.594918,78.737317 L 63.594918,78.737317 z"
       sodipodi:nodetypes="ccscccssssssssscccccc"
       inkscape:export-xdpi="90"
       inkscape:export-ydpi="90" />
  </g>
</svg>
