<?xml version="1.0" encoding="UTF-8" standalone="no"?>
<!-- Created with Inkscape (http://www.inkscape.org/) -->
<svg
   xmlns:dc="http://purl.org/dc/elements/1.1/"
   xmlns:cc="http://creativecommons.org/ns#"
   xmlns:rdf="http://www.w3.org/1999/02/22-rdf-syntax-ns#"
   xmlns:svg="http://www.w3.org/2000/svg"
   xmlns="http://www.w3.org/2000/svg"
   xmlns:xlink="http://www.w3.org/1999/xlink"
   xmlns:sodipodi="http://sodipodi.sourceforge.net/DTD/sodipodi-0.dtd"
   xmlns:inkscape="http://www.inkscape.org/namespaces/inkscape"
   width="48"
   height="48"
   id="svg1306"
   sodipodi:version="0.32"
   inkscape:version="0.46"
   sodipodi:docbase="/root/Desktop/Elementary_0.9.1.5/scalable/apps"
   sodipodi:docname="large_irc-console-inactive.svg"
   inkscape:output_extension="org.inkscape.output.svg.inkscape"
   version="1.0"
   inkscape:export-filename="/home/draek/Projects/galaxium/trunk/src/Protocols/Galaxium.Protocol.Irc.Gtk/Icons/large_irc-console-inactive.png"
   inkscape:export-xdpi="90"
   inkscape:export-ydpi="90">
  <sodipodi:namedview
     id="base"
     pagecolor="#ffffff"
     bordercolor="#666666"
     borderopacity="0.25490196"
     inkscape:pageopacity="0.0"
     inkscape:pageshadow="2"
     inkscape:zoom="8.049587"
     inkscape:cx="47.024457"
     inkscape:cy="4.1220372"
     inkscape:current-layer="layer2"
     showgrid="true"
     inkscape:grid-bbox="true"
     inkscape:document-units="px"
     inkscape:window-width="1680"
     inkscape:window-height="965"
     inkscape:window-x="0"
     inkscape:window-y="27"
     inkscape:showpageshadow="false"
     fill="#204a87">
    <inkscape:grid
       type="xygrid"
       id="grid5530" />
  </sodipodi:namedview>
  <defs
     id="defs1308">
    <linearGradient
       inkscape:collect="always"
       xlink:href="#linearGradient2223"
       id="linearGradient9955"
       gradientUnits="userSpaceOnUse"
       x1="35.694206"
       y1="37.333858"
       x2="15.044075"
       y2="5.9588566"
       gradientTransform="matrix(0.9994516,0,0,1.0514531,-4.8851334e-2,2.033298)" />
    <linearGradient
       inkscape:collect="always"
       xlink:href="#linearGradient2238"
       id="linearGradient9958"
       gradientUnits="userSpaceOnUse"
       gradientTransform="matrix(0.952868,0,0,0.9725004,1.0690397,0.986103)"
       x1="20.338758"
       y1="19.636894"
       x2="46.092255"
       y2="39.708324" />
    <linearGradient
       id="linearGradient9936">
      <stop
         style="stop-color:#333333;stop-opacity:1;"
         offset="0"
         id="stop9938" />
      <stop
         style="stop-color:#575757;stop-opacity:1;"
         offset="1"
         id="stop9940" />
    </linearGradient>
    <linearGradient
       inkscape:collect="always"
       xlink:href="#linearGradient9936"
       id="linearGradient9961"
       gradientUnits="userSpaceOnUse"
       x1="28.075975"
       y1="33.133156"
       x2="28.064732"
       y2="6.6442919"
       gradientTransform="matrix(0.9994516,0,0,1.0514531,-4.8851334e-2,2.033298)" />
    <linearGradient
       inkscape:collect="always"
       xlink:href="#linearGradient2214"
       id="linearGradient9966"
       gradientUnits="userSpaceOnUse"
       gradientTransform="matrix(0.9528041,0,0,0.977267,1.0705767,-3.2625026e-2)"
       x1="0.0012142062"
       y1="24.012266"
       x2="47.998765"
       y2="24.012266" />
    <linearGradient
       inkscape:collect="always"
       xlink:href="#linearGradient2206"
       id="linearGradient9964"
       gradientUnits="userSpaceOnUse"
       gradientTransform="matrix(0.9528041,0,0,0.977267,1.0705767,-3.2625026e-2)"
       x1="25.861118"
       y1="26.133587"
       x2="18.300278"
       y2="19.567596" />
    <radialGradient
       inkscape:collect="always"
       xlink:href="#linearGradient5060"
       id="radialGradient9745"
       gradientUnits="userSpaceOnUse"
       gradientTransform="matrix(-2.774389,0,0,1.969706,112.7623,-872.8854)"
       cx="605.71429"
       cy="486.64789"
       fx="605.71429"
       fy="486.64789"
       r="117.14286" />
    <radialGradient
       inkscape:collect="always"
       xlink:href="#linearGradient5060"
       id="radialGradient9743"
       gradientUnits="userSpaceOnUse"
       gradientTransform="matrix(2.774389,0,0,1.969706,-1891.633,-872.8854)"
       cx="605.71429"
       cy="486.64789"
       fx="605.71429"
       fy="486.64789"
       r="117.14286" />
    <linearGradient
       inkscape:collect="always"
       xlink:href="#linearGradient5048"
       id="linearGradient9740"
       gradientUnits="userSpaceOnUse"
       gradientTransform="matrix(2.774389,0,0,1.969706,-1892.179,-872.8854)"
       x1="302.85715"
       y1="366.64789"
       x2="302.85715"
       y2="609.50507" />
    <inkscape:perspective
       sodipodi:type="inkscape:persp3d"
       inkscape:vp_x="0 : 24 : 1"
       inkscape:vp_y="0 : 1000 : 0"
       inkscape:vp_z="48 : 24 : 1"
       inkscape:persp3d-origin="24 : 16 : 1"
       id="perspective62" />
    <radialGradient
       inkscape:collect="always"
       id="radialGradient5031"
       r="117.14286"
       gradientTransform="matrix(-2.774389,0,0,1.969706,112.7623,-872.8854)"
       cx="605.71429"
       cy="486.64789"
       gradientUnits="userSpaceOnUse"
       xlink:href="#linearGradient5060"
       fy="486.64789"
       fx="605.71429" />
    <linearGradient
       inkscape:collect="always"
       id="linearGradient5060">
      <stop
         offset="0"
         id="stop5062"
         style="stop-color:black;stop-opacity:1;" />
      <stop
         offset="1"
         id="stop5064"
         style="stop-color:black;stop-opacity:0;" />
    </linearGradient>
    <radialGradient
       inkscape:collect="always"
       id="radialGradient5029"
       r="117.14286"
       gradientTransform="matrix(2.774389,0,0,1.969706,-1891.633,-872.8854)"
       cx="605.71429"
       cy="486.64789"
       gradientUnits="userSpaceOnUse"
       xlink:href="#linearGradient5060"
       fy="486.64789"
       fx="605.71429" />
    <linearGradient
       id="linearGradient5048">
      <stop
         offset="0"
         id="stop5050"
         style="stop-color:black;stop-opacity:0;" />
      <stop
         offset="0.5"
         id="stop5056"
         style="stop-color:black;stop-opacity:1;" />
      <stop
         offset="1"
         id="stop5052"
         style="stop-color:black;stop-opacity:0;" />
    </linearGradient>
    <linearGradient
       inkscape:collect="always"
       id="linearGradient5027"
       x1="302.85715"
       y1="366.64789"
       gradientTransform="matrix(2.774389,0,0,1.969706,-1892.179,-872.8854)"
       x2="302.85715"
       gradientUnits="userSpaceOnUse"
       xlink:href="#linearGradient5048"
       y2="609.50507" />
    <linearGradient
       inkscape:collect="always"
       id="linearGradient2223">
      <stop
         offset="0"
         id="stop2225"
         style="stop-color:#ffffff;stop-opacity:1;" />
      <stop
         offset="1"
         id="stop2229"
         style="stop-color:#ffffff;stop-opacity:0;" />
    </linearGradient>
    <linearGradient
       id="linearGradient2222">
      <stop
         offset="0"
         id="stop2224"
         style="stop-color:#2c2c2d;stop-opacity:1" />
      <stop
         offset="1"
         id="stop2227"
         style="stop-color:#313131;stop-opacity:1" />
    </linearGradient>
    <linearGradient
       inkscape:collect="always"
       id="linearGradient2238">
      <stop
         offset="0"
         id="stop2240"
         style="stop-color:#ffffff;stop-opacity:1;" />
      <stop
         offset="1"
         id="stop2242"
         style="stop-color:#ffffff;stop-opacity:0;" />
    </linearGradient>
    <linearGradient
       id="linearGradient2214">
      <stop
         offset="0.0000000"
         id="stop2216"
         style="stop-color:#a9aaa7;stop-opacity:1.0000000;" />
      <stop
         offset="1.0000000"
         id="stop2218"
         style="stop-color:#676964;stop-opacity:1.0000000;" />
    </linearGradient>
    <linearGradient
       id="linearGradient2206">
      <stop
         offset="0.0000000"
         id="stop2208"
         style="stop-color:#c3c6c0;stop-opacity:1.0000000;" />
      <stop
         offset="1.0000000"
         id="stop2210"
         style="stop-color:#e8eae6;stop-opacity:1.0000000;" />
    </linearGradient>
    <linearGradient
       inkscape:collect="always"
       id="linearGradient2212"
       x1="25.861118"
       y1="26.133587"
       gradientTransform="matrix(0.952387,0.000000,0.000000,1.018339,1.142599,-1.941627)"
       x2="18.300278"
       gradientUnits="userSpaceOnUse"
       xlink:href="#linearGradient2206"
       y2="19.567596" />
    <linearGradient
       inkscape:collect="always"
       id="linearGradient2220"
       x1="0.0012142062"
       y1="24.012266"
       gradientTransform="matrix(0.952387,0.000000,0.000000,1.018339,1.142599,-1.941627)"
       x2="47.998765"
       gradientUnits="userSpaceOnUse"
       xlink:href="#linearGradient2214"
       y2="24.012266" />
    <linearGradient
       inkscape:collect="always"
       id="linearGradient2244"
       x1="20.338758"
       y1="19.636894"
       gradientTransform="matrix(0.952387,0.000000,0.000000,1.015657,1.142599,-0.876325)"
       x2="46.092255"
       gradientUnits="userSpaceOnUse"
       xlink:href="#linearGradient2238"
       y2="39.708324" />
    <radialGradient
       inkscape:collect="always"
       id="radialGradient2229"
       r="19.088932"
       gradientTransform="matrix(1.768625,-1.961257e-23,1.552064e-23,1.387102,-18.44248,-15.29268)"
       cx="23.994133"
       cy="32.266911"
       gradientUnits="userSpaceOnUse"
       xlink:href="#linearGradient2222"
       fy="32.266911"
       fx="23.994133" />
    <linearGradient
       inkscape:collect="always"
       id="linearGradient2231"
       x1="35.694206"
       y1="37.333858"
       x2="15.044075"
       gradientUnits="userSpaceOnUse"
       xlink:href="#linearGradient2223"
       y2="5.9588566" />
  </defs>
  <metadata
     id="metadata1311">
    <rdf:RDF>
      <cc:Work
         rdf:about="">
        <dc:format>image/svg+xml</dc:format>
        <dc:type
           rdf:resource="http://purl.org/dc/dcmitype/StillImage" />
        <dc:title>System Monitor</dc:title>
        <dc:date>2005-10-10</dc:date>
        <dc:creator>
          <cc:Agent>
            <dc:title>Andreas Nilsson</dc:title>
          </cc:Agent>
        </dc:creator>
        <dc:subject>
          <rdf:Bag>
            <rdf:li>system</rdf:li>
            <rdf:li>monitor</rdf:li>
            <rdf:li>performance</rdf:li>
          </rdf:Bag>
        </dc:subject>
        <cc:license
           rdf:resource="http://creativecommons.org/licenses/by-sa/2.0/" />
        <dc:contributor>
          <cc:Agent>
            <dc:title>Jakub Steiner</dc:title>
          </cc:Agent>
        </dc:contributor>
      </cc:Work>
      <cc:License
         rdf:about="http://creativecommons.org/licenses/by-sa/2.0/">
        <cc:permits
           rdf:resource="http://web.resource.org/cc/Reproduction" />
        <cc:permits
           rdf:resource="http://web.resource.org/cc/Distribution" />
        <cc:requires
           rdf:resource="http://web.resource.org/cc/Notice" />
        <cc:requires
           rdf:resource="http://web.resource.org/cc/Attribution" />
        <cc:permits
           rdf:resource="http://web.resource.org/cc/DerivativeWorks" />
        <cc:requires
           rdf:resource="http://web.resource.org/cc/ShareAlike" />
      </cc:License>
    </rdf:RDF>
  </metadata>
  <g
     inkscape:groupmode="layer"
     id="layer1"
     inkscape:label="Layer 1" />
  <g
     inkscape:groupmode="layer"
     id="layer2"
     inkscape:label="bleep">
    <g
       id="g17259"
       inkscape:label="shadow"
       transform="translate(-58.038526,-1.342917)" />
    <g
       transform="matrix(2.454499e-2,0,0,2.086758e-2,45.831677,40.162522)"
       id="g5022">
      <rect
         id="rect4173"
         x="-1559.2523"
         y="-150.69685"
         width="1339.6335"
         height="478.35718"
         style="opacity:0.40206185;fill:url(#linearGradient9740);fill-opacity:1;fill-rule:nonzero;stroke:none;stroke-width:1;stroke-linecap:round;stroke-linejoin:miter;marker:none;marker-start:none;marker-mid:none;marker-end:none;stroke-miterlimit:4;stroke-dasharray:none;stroke-dashoffset:0;stroke-opacity:1;visibility:visible;display:inline;overflow:visible" />
      <path
         d="M -219.61876,-150.68038 C -219.61876,-150.68038 -219.61876,327.65041 -219.61876,327.65041 C -76.744594,328.55086 125.78146,220.48075 125.78138,88.454235 C 125.78138,-43.572302 -33.655436,-150.68036 -219.61876,-150.68038 z"
         id="path5058"
         style="opacity:0.40206185;fill:url(#radialGradient9743);fill-opacity:1;fill-rule:nonzero;stroke:none;stroke-width:1;stroke-linecap:round;stroke-linejoin:miter;marker:none;marker-start:none;marker-mid:none;marker-end:none;stroke-miterlimit:4;stroke-dasharray:none;stroke-dashoffset:0;stroke-opacity:1;visibility:visible;display:inline;overflow:visible"
         sodipodi:nodetypes="cccc" />
      <path
         id="path5018"
         d="M -1559.2523,-150.68038 C -1559.2523,-150.68038 -1559.2523,327.65041 -1559.2523,327.65041 C -1702.1265,328.55086 -1904.6525,220.48075 -1904.6525,88.454235 C -1904.6525,-43.572302 -1745.2157,-150.68036 -1559.2523,-150.68038 z"
         style="opacity:0.40206185;fill:url(#radialGradient9745);fill-opacity:1;fill-rule:nonzero;stroke:none;stroke-width:1;stroke-linecap:round;stroke-linejoin:miter;marker:none;marker-start:none;marker-mid:none;marker-end:none;stroke-miterlimit:4;stroke-dasharray:none;stroke-dashoffset:0;stroke-opacity:1;visibility:visible;display:inline;overflow:visible"
         sodipodi:nodetypes="cccc" />
    </g>
    <rect
       id="rect1316"
       x="1.4968405"
       y="3.4980068"
       width="45.006428"
       height="40.001408"
       ry="4.8009262"
       rx="4.5634871"
       style="fill:url(#linearGradient9964);fill-opacity:1;fill-rule:evenodd;stroke:url(#linearGradient9966);stroke-width:1;stroke-linecap:round;stroke-linejoin:round;stroke-miterlimit:4;stroke-dasharray:none;stroke-dashoffset:0;stroke-opacity:1" />
    <rect
       id="rect1314"
       x="5.5419302"
       y="7.5055103"
       width="36.960365"
       height="30.984312"
       ry="1.7818669"
       rx="1.6937413"
       style="fill:url(#linearGradient9961);fill-opacity:1;fill-rule:evenodd;stroke:#1e1f1f;stroke-width:1.0251224;stroke-linecap:round;stroke-linejoin:round;stroke-miterlimit:4;stroke-dasharray:none;stroke-dashoffset:0;stroke-opacity:1" />
    <rect
       id="rect2232"
       x="2.5065334"
       y="4.5125265"
       width="43.002106"
       height="37.987621"
       ry="3.8331082"
       rx="4.0052323"
       style="fill:none;fill-opacity:1;fill-rule:evenodd;stroke:url(#linearGradient9958);stroke-width:1;stroke-linecap:round;stroke-linejoin:round;stroke-miterlimit:4;stroke-dasharray:none;stroke-dashoffset:0;stroke-opacity:1" />
    <rect
       id="rect2221"
       x="4.47367"
       y="6.4962225"
       width="39.05405"
       height="32.994324"
       ry="2.7018888"
       rx="2.5682623"
       style="opacity:0.57386361;fill:none;fill-opacity:1;fill-rule:evenodd;stroke:url(#linearGradient9955);stroke-width:1.02512264;stroke-linecap:round;stroke-linejoin:round;stroke-miterlimit:4;stroke-dasharray:none;stroke-dashoffset:0;stroke-opacity:1" />
    <text
       xml:space="preserve"
       style="font-size:40px;font-style:normal;font-weight:normal;fill:#000000;fill-opacity:1;stroke:none;stroke-width:1px;stroke-linecap:butt;stroke-linejoin:miter;stroke-opacity:1;font-family:Bitstream Vera Sans"
       x="-2.6353159"
       y="25.951193"
       id="text5527"><tspan
         sodipodi:role="line"
         id="tspan5529" /></text>
  </g>
</svg>
